//APD240PM JOB (SYS000),'SONIA-DISBRSMNTS',MSGLEVEL=(1,1),
//*    RESTART=STEP06,
//        NOTIFY=APCDBM,CLASS=K,MSGCLASS=F,REGION=0M
//*++++++++++++++++++++++++++
//*    ZEKE EVENT # 2066
//*++++++++++++++++++++++++++
//OUT1 OUTPUT CLASS=F,FORMS=A011,JESDS=ALL,DEFAULT=YES,GROUPID=ACCTG
//OUT2 OUTPUT CLASS=G,FORMS=A002,GROUPID=DISBSMT,COPIES=2
//OUT3 OUTPUT CLASS=G,FORMS=A002,GROUPID=BACKUP
//OUT4 OUTPUT CLASS=G,FORMS=B002,GROUPID=DISBSMT
//OUT5 OUTPUT CLASS=1,FORMS=A002,GROUPID=DISBSMT,COPIES=2
//OUT6 OUTPUT CLASS=2,FORMS=B002,GROUPID=PDFMAIL
//* (OUT2 & OUT5 ARE THE SAME....JUST DUPLICATED FOR PRINT REDUCTION)
//* (OUT4 & OUT6 ARE THE SAME....JUST DUPLICATED FOR PRINT REDUCTION)
//*====================================================
//*         WELLS FARGO BANK JACKETING FOR ACH
//*
//*   RUN THIS JOB IN THE 'PM' CYCLE AFTER WELLS FARGO ACH FILE
//*   HAS BEEN CREATED IN THE APD200AM JOB IN THE 'AM' CYCLE.
//*
//*   IT DOES NOT RUN DURING THE CHRISTMAS-NEW YEAR PERIOD
//*
//*  !!!NOTE: DO NOT CONCATANATE FILES IN THIS JOB IF PREVIOUS
//*       DAYS XFERACH WAS NOT SENT. UAP210 FLAGS THE EXTERNAL
//*       ACH DATA.
//*    !!!!ALWAYS CHECK FOR DUPLICATES WHEN DEALING WITH MORE
//*        THAN ONE DAY'S DATA.
//*
//*  DISPLAY INPUT DATASET: FISP.ACH.FILE.D$APDAT..AM$AMSTAMP
//*  DISPLAY INPUT DATASET: FISP.UUTD140.UUTX140.ACHTRNS.D$APDAT
//*  DISPLAY INPUT DATASET: SISP.ARD290.UARX540.ACHTRNS.D$APDAT
//*
//*====================================================
//REMOVE1  EXEC PGM=IEFBR14
//DD1       DD DSN=FISP.APD240.UAPU240.CR.D$APDAT..PM$PMSTAMP,
//             DISP=(MOD,DELETE,DELETE),
//             DCB=(RECFM=FB,LRECL=133,BLKSIZE=23408),
//             SPACE=(TRK,(2,2),RLSE),
//             UNIT=SYSDA
//*====================================================
//STEP01   EXEC PGM=SORT
//SYSOUT    DD SYSOUT=*
//SORTIN    DD DSN=FISP.ACH.FILE.D$APDAT..AM$AMSTAMP,
//             DISP=SHR
//SORTOUT   DD DSN=FISP.ACH.FILE.SORT.D$APDAT..PM$PMSTAMP,
//             DISP=(NEW,CATLG,DELETE),
//             DCB=(RECFM=FB,LRECL=94,BLKSIZE=27918),
//             SPACE=(TRK,(75,75),RLSE),
//             UNIT=SYSDA
//SORTWK01  DD SPACE=(TRK,(75,150)),
//             UNIT=SYSDA
//SYSIN     DD *
   SORT FIELDS=(77,2,CH,A,80,15,CH,A)
/*
//*====================================================================
//STEP02   EXEC PGM=UAPU240
//STEPLIB   DD DSN=FISP.FIS.LOADLIB,DISP=SHR
//          DD DSN=DB2P.DCA.LOAD,DISP=SHR
//          DD DSN=DB2F.DSNEXIT,DISP=SHR
//          DD DSN=DB2F.DSNLOAD,DISP=SHR
//SYSPRINT DD  SYSOUT=*
//SYSTSPRT DD  SYSOUT=*
//SYSTSIN  DD  *
 DSN SYSTEM(DB2F)
 RUN PROGRAM(UAPU240) PLAN(UAPU240)
/*
//SYSOUT    DD SYSOUT=*
//SYSLST    DD SYSOUT=*
//SYSUDUMP  DD SYSOUT=D
//SYSDBOUT  DD SYSOUT=*
//EXTRAC01  DD DSN=FISP.UUTD140.UUTX140.ACHTRNS.D$APDAT,DISP=SHR
//          DD DSN=SISP.ARD290.UARX540.ACHTRNS.D$APDAT,DISP=SHR
//          DD DSN=FISP.ACH.FILE.SORT.D$APDAT..PM$PMSTAMP,DISP=SHR
//ACHFILE   DD DSN=FISP.ACHTRAN.FILE.D$APDAT..PM$PMSTAMP,
//             DISP=(NEW,CATLG,DELETE),MGMTCLAS=MY,
//             DCB=(RECFM=FB,LRECL=94,BLKSIZE=27918),
//             SPACE=(TRK,(75,15),RLSE),
//             UNIT=SYSDA
//*REPORT01  DD DSN=FISP.APD240.UAPU240.REPT01.D$APDAT..PM$PMSTAMP,
//REPORT01  DD DSN=GAOT.APD240.UAPU240.REPT01.D$APDAT..PM$PMSTAMP,
//             DISP=(NEW,CATLG,KEEP),MGMTCLAS=MY,
//             DCB=(RECFM=FB,BLKSIZE=23408,LRECL=133),
//             SPACE=(TRK,(30,30),RLSE),
//             UNIT=SYSDA
//REPORT02  DD DSN=FISP.APD240.UAPU240.REPT02.D$APDAT..PM$PMSTAMP,
//             DISP=(NEW,CATLG,KEEP),MGMTCLAS=MY,
//             DCB=(RECFM=FB,BLKSIZE=23408,LRECL=133),
//             SPACE=(TRK,(30,30),RLSE),
//             UNIT=SYSDA
//CONTROLR  DD DSN=FISP.APD240.UAPU240.CR.D$APDAT..PM$PMSTAMP,
//             DISP=(NEW,CATLG,KEEP),
//             DCB=(RECFM=FBA,LRECL=133,BLKSIZE=23408),
//             SPACE=(TRK,(2,2),RLSE),
//             UNIT=SYSDA
//PARM01    DD DSN=FISP.PARMLIB(APD240P1),DISP=SHR
/*
//*====================================================
//* THE FOLLOWING ARE THE 'OLD' PARMS USED WITH ADVANTIS
//*====================================================
//*UNIVERSITY CODE 01
//*BANK CODE 01
//*FILE TYPE KH013
//*CUSTOMER ID 0014580J
//*FILE SEQ 01
//*ACH ABA 121000248
//*ORIGINATOR ID 3956006144
//*FILE ID A
//*RECORD SIZE 094
//*BLOCKING FACTOR 10
//*FORMAT CODE 1
//*ACH NAME WELLS FARGO BANK
//*ORIGIN UCSD
//*SERVICE CLASS CODE 200
//*COMPANY NAME U.C. SAN DIEGO
//*COMPANY ID 3956006144
//*ENTRY CLASS CODE PPD
//*COMPANY DESCRIPTION UCSD APACH
//*STATUS CODE 1
//*COMMIT COUNTER 0025
//*====================================================
//*TEST FILE T  (TEST PARM CARD FROM ABOVE)
//*====================================================
//*       PRINT CONTROL REPORT
//*====================================================
//STEP03   EXEC PGM=IEBGENER
//SYSPRINT  DD SYSOUT=*
//SYSUT2    DD SYSOUT=(,),
//             OUTPUT=(*.OUT2,*.OUT3,*.OUT4,*.OUT5,*.OUT6)
//*            OUTPUT=(*.OUT2,*.OUT3)
//SYSUT1    DD DSN=FISP.APD240.UAPU240.CR.D$APDAT..PM$PMSTAMP,
//             DISP=SHR
//SYSIN     DD DUMMY
//*====================================================
//*       PRINT DETAIL REPORT ACH ISSUED
//*====================================================
//STEP04   EXEC PGM=IEBGENER
//SYSPRINT  DD SYSOUT=*
//*SYSUT2    DD SYSOUT=*
//SYSUT2    DD SYSOUT=(,),
//             OUTPUT=(*.OUT2,*.OUT3,*.OUT4,*.OUT5,*.OUT6)
//*SYSUT1    DD DSN=FISP.APD240.UAPU240.REPT01.D$APDAT..PM$PMSTAMP,
//SYSUT1    DD DSN=GAOT.APD240.UAPU240.REPT01.D$APDAT..PM$PMSTAMP,
//             DISP=SHR
//SYSIN     DD DUMMY
//*
//*====================================================
//*       PRINT DETAIL REPORT ACH CANCELLED
//*====================================================
//STEP05   EXEC PGM=IEBGENER
//SYSPRINT  DD SYSOUT=*
//*SYSUT2    DD SYSOUT=*
//SYSUT2    DD SYSOUT=(,),
//             OUTPUT=(*.OUT2,*.OUT3,*.OUT4,*.OUT5,*.OUT6)
//SYSUT1    DD DSN=FISP.APD240.UAPU240.REPT02.D$APDAT..PM$PMSTAMP,
//             DISP=SHR
//SYSIN     DD DUMMY
//*
//*====================================================
//*====================================================
//*       COPY CONTROL REPORT TO COMMON CC:MAIL FILE
//*====================================================
//STEP06   EXEC PGM=IDCAMS
//SYSPRINT  DD SYSOUT=*
//SYSIN     DD *
     REPRO -
       INDATASET(FISP.APD240.UAPU240.CR.D$APDAT..PM$PMSTAMP) -
       OUTDATASET(FISP.APD240.UAPU240.CONTROLR)
/*
//*====================================================
//*              MAIL CONTROL REPORT
//*====================================================
//MAILIT   EXEC PGM=IKJEFT01,
//             DYNAMNBR=20
//SYSPROC   DD DSN=SYST.T.CLIST,
//             DISP=SHR
//SYSPRINT  DD SYSOUT=*
//SYSTSPRT  DD SYSOUT=*
//* MAIL NOTICES BEING SENT TO THE FOLLOWING PEOPLE:
//DESTIDS   DD *
AWEBB@UCSD.EDU
DMESERVE@UCSD.EDU
VHER@UCSD.EDU
DCHOCK@UCSD.EDU
EERMINO@UCSD.EDU
JLORANCA@UCSD.EDU
MKRASMUSSEN@UCSD.EDU
NCOWELL@UCSD.EDU
MAADAMS@UCSD.EDU
LVOLVERA@UCSD.EDU
EKEEFER@UCSD.EDU
JYCHURCH@UCSD.EDU
/*
//* EMAIL TEXT FOLLOWS:
//NOTES     DD *
 TO WHOM IT MAY CONCERN:
 A  'PM' A/P  ACH  ELECTRONIC TRANSMISSION FILE
 WAS CREATED ON $DOW ($EXDATE) AT $PMSTAMP..PM.
 AND WAS TRANSMITTED TO THE BANK ON $DOW ($EXDATE).

 THE CONTROL REPORT FROM THAT JOB
 FOLLOWS THIS MAIL TEXT.


 THANK YOU,
 MGR, PRODUCTION CONTROL

/*
//* CONTROL REPORT FILENAME FOLLOWS:
//SYSTSIN   DD *
 %MAILRPT -
 'FISP.APD240.UAPU240.CONTROLR' -
 SUBJECT('$DOW "PM" A/P ACH FILE CREATED/SENT')
/*
//*
//*============================================================
//*   SET FTP VAR TO EQUAL $APDAT SO THAT SHOULD FTP'S FAIL DUE
//*   TO BFS LINK BEING DOWN, THE $APDATFTP VARAIBLE WILL STILL
//*   REMAIN TRUE TO DATASET VALUE UNTIL NEXT DAY'S PROCESSING.
//*============================================================
//Z1     EXEC PGM=ZEKESET
//SYSPRINT DD SYSOUT=*
//SYSIN    DD *
  SET VAR $APDATFTP  EQ $APDAT
/*
//*============================================================
//*   FTP TO BFS
//*============================================================
//SUBBFSFT EXEC PGM=ZEKESET,
//             COND=((9,LT),(5,EQ),(6,EQ),(7,EQ))
//SYSPRINT  DD SYSOUT=*
//SYSIN     DD *
 SET SCOM 'ZADD EV (2018) REBUILD'
/*
//*============================================================
//* THE FOLLOWING STEP WILL SET CC 223 IF ANY OF THE JOB STEPS
//* ABEND OR SET AN 'UNACCEPTABLE' CONDITION CODE.
//*============================================================
//STOPZEKE EXEC STOPZEKE
//*
//*================ E N D  O F  J C L  APD240PM =======
