//APDAR70 JOB (SYS000),'PRDCTL',MSGCLASS=F,MSGLEVEL=(1,1),              00000100
//*====================================================                 00000200
//*      RESTART=STEP01A,                                               00000300
//*      RESTART=STEP13,                                                00000300
//*      RESTART=STEP14,                                                00000300
//*      RESTART=STEP15,                                                00000300
//*      RESTART=STEP30,                                                00000300
//*====================================================                 00000400
//        NOTIFY=APCPSB,CLASS=K,REGION=0M                               00000500
//*====================================================                 00000600
//*====================================================                 00000600
//*  YOU ** MUST ** SUBMIT THIS JOB THRU ZEKE !                         00000700
//*++++++++++++++++++++++++++                                           00000800
//*    ZEKE EVENT # 2064      ( THIS USED TO BE 'ARFA' )                00000900
//*++++++++++++++++++++++++++                                           00001000
//*====================================================                 00001100
//*OUTSPEC OUTPUT LINECT=66,FORMS=IFIS                                  00001200
/*JOBPARM LINECT=0
//OUT1 OUTPUT CLASS=G,FORMS=A002,DEST=LOCAL,GROUPID=AR70CHKS            00001300
//OUT2 OUTPUT CLASS=4,FORMS=A002,DEST=LOCAL,GROUPID=BACKUP1             00001400
//OUT3 OUTPUT CLASS=X,FORMS=A002,DEST=LOCAL,GROUPID=DISBSMT
//OUT4 OUTPUT CLASS=3,FORMS=A002,DEST=LOCAL,GROUPID=BACKUP1             00001400
//POST1 OUTPUT CLASS=S,FORMS=P075,DEST=LOCAL,GROUPID=AR70CONF           00001500
//POST2 OUTPUT CLASS=2,FORMS=P075,DEST=LOCAL,GROUPID=BACKUP2            00001600
//* (OUT2 CHANGED FROM 'G' TO '4' FOR PRINT REDUCTION PROJECT ONLY)
//* (OUT4 CHANGED FROM 'G' TO '3' FOR PRINT REDUCTION PROJECT ONLY)
//* (POST2 CHANGED FROM 'G' TO '2' FOR PRINT REDUCTION PROJECT ONLY)
//*====================================================                 00001700
//* STEP14 CONTAIN CASE-SENSITIVE CODE,                                 00000600
//*    DO NOT CHANGE ANY LOWERCASE TO UPPERCASE                         00000600
//*====================================================                 00001900
//*====================================================
//* CHECK THE STATUS OF THE ORIGIN, CAN ONLY RUN THIS JOB
//* IF THE ORIGIN STATUS IS 'INACTIVE'
//*
//* STATUS OF 'STOP' OR 'GO' WILL ABEND IN STEP00A WITH
//* A RETURN CODE OF 16
//*====================================================
//STEP00   EXEC PGM=IEBGENER
//SYSPRINT DD SYSOUT=Z
//SYSUT1 DD *
      APDAR70 = ** $APDAR70 **
/*
//SYSUT2  DD DSN=FISP.CHKWRITE.STATUS,
//           DISP=SHR
//SYSIN DD DUMMY
/*
//*============================================================
//STEP00A  EXEC PGM=UAPSTCHK
//STEPLIB   DD DSN=FISP.FIS.LOADLIB,DISP=SHR
//STATUS01  DD DSN=FISP.CHKWRITE.STATUS,DISP=SHR
//SYSOUT    DD SYSOUT=*
//SYSUDUMP  DD SYSOUT=*
//*
//*============================================================
//STEP01   EXEC PGM=FAPTK00,COND=((9,LT),(5,EQ),(6,EQ),(7,EQ))          00002000
//STEPLIB   DD DSN=FISP.FIS.LOADLIB,DISP=SHR
//          DD DSN=DB2P.DCA.LOAD,DISP=SHR
//          DD DSN=DB2F.DSNEXIT,DISP=SHR
//          DD DSN=DB2F.DSNLOAD,DISP=SHR
//SYSPRINT DD  SYSOUT=*
//SYSTSPRT DD  SYSOUT=*
//SYSTSIN  DD  *
 DSN SYSTEM(DB2F)
 RUN PROGRAM(FAPTK00) PLAN(FAPTK00)
/*
//CONTROLR  DD DSN=FISP.APDAR70.FAPTK00.CR.D$APDAT..T$FTIME,            00002900
//             DISP=(NEW,CATLG,KEEP),                                   00003000
//             DCB=(RECFM=FBA,LRECL=133,BLKSIZE=23408),                 00003100
//             SPACE=(TRK,(2,2),RLSE),                                  00003200
//             UNIT=SYSDA                                               00003300
//SYSOUT    DD SYSOUT=*                                                 00003400
//SYSLST    DD SYSOUT=*                                                 00003500
//SYSUDUMP  DD SYSOUT=D,                                                00003600
//             DEST=LOCAL                                               00003700
//SYSDBOUT  DD SYSOUT=*                                                 00003800
//CARDFILE  DD *                                                        00003900
01 APCPRD   AR70 01 $APY.$APD            0025
/*                                                                      00004000
//RUNPARMS  DD DSN=FISP.FILE.CHECKS.RUNPARMS,                           00004100
//             DISP=SHR                                                 00004200
//SYSIN     DD *
 000001 ISISDICT
//*============================================================
//* FIRST CONTROL LINE BELOW IS FOR FISCAL CLOSING PURPOSES
//* **USUALLY FROM JUNE 30 - JULY 14**
//* RESULTS ARE POSTED INTO PRELIMINARY LEDGER
//* (REPLACE CONTROL CARD ABOVE WITH FIRST CONTROL CARD BELOW
//* UNTIL AFTER CLOSING OF PRELIMINARY LEDGER PERIOD FOR DISBURSEMENTS)
//* (YEAR VALUE MUST BE CHANGED!)
//* (OFFSET OF '0025' IS INTENTIONAL DUE TO TRANSLATION DIFFERENCE
//*  IN SPACING OF ZEKE VARIABLES AND HARDCODED DATE)
//*
//*01 APCPRD   AR70 01 20140630            0025
//*01 APCPRD   AR70 01 $APY.$APD            0025
//*===========================================================          00016800
//*   PRE-VALIDATE EXTTRACT FILE ADDRESSES                              00016900
//*   note: if this step terminates with a return code = 99
//*   correct the problem and restart.
//*===========================================================          00017000
//STEP01A  EXEC PGM=UAPDX00                                             00017100
//STEPLIB   DD DSN=FISP.FIS.LOADLIB,DISP=SHR
//EXTIFILE  DD DSN=SISP.ARZ270.SARX400.SAR400A.AP$AR70DATE,             00019400
//             DISP=SHR                                                 00019300
//SARX400   DD DSN=SISP.SARX400.AP$AR70ADDRSS,                          00019200
//             DISP=SHR                                                 00019300
//REPORT01  DD SYSOUT=*                                                 00018000
//SYSOUT    DD SYSOUT=*                                                 00018500
//SYSUDUMP  DD SYSOUT=D,                                                00010100
//             DEST=LOCAL                                               00010200
/*                                                                      00020000
//*====================================================                 00004500
//*       DELETE CATALOGED FILES                                        00004600
//*====================================================                 00004700
//STEP02   EXEC PGM=IEFBR14,COND=((9,LT),(5,EQ),(6,EQ),(7,EQ))          00004800
//FAPXK00E  DD DSN=FISP.FILE.XK00E.AR70,                                00004900
//             DISP=(MOD,DELETE,DELETE),                                00005000
//             DCB=(RECFM=FB,LRECL=206,BLKSIZE=6180),                   00005100
//             SPACE=(TRK,(15,15),RLSE),                                00005200
//             UNIT=SYSDA                                               00005300
//FAPUK02E  DD DSN=FISP.FILE.UK02E.AR70,                                00005400
//             DISP=(MOD,DELETE,DELETE),                                00005500
//             DCB=(RECFM=FB,LRECL=344,BLKSIZE=23392),                  00005600
//             SPACE=(TRK,(15,15),RLSE),                                00005700
//             UNIT=SYSDA                                               00005800
//FAPCK03O  DD DSN=FISP.FILE.CK03O.AR70,                                00005900
//             DISP=(MOD,DELETE,DELETE),                                00006000
//             DCB=(RECFM=FB,LRECL=408,BLKSIZE=27744),                  00006100
//             SPACE=(TRK,(15,15),RLSE),                                00006200
//             UNIT=SYSDA                                               00006300
//FAPDK04O  DD DSN=FISP.FILE.DK04O.AR70,                                00006400
//             DISP=(MOD,DELETE,DELETE),                                00006500
//             DCB=(RECFM=FB,LRECL=414,BLKSIZE=23184),                  00006600
//             SPACE=(TRK,(15,15),RLSE),                                00006700
//             UNIT=SYSDA                                               00006800
//DD6       DD DSN=FISP.FILE.DK04O.CONF.AR70,                           00006900
//             DISP=(MOD,DELETE,DELETE),                                00007000
//             DCB=(RECFM=FB,LRECL=414,BLKSIZE=23184),                  00007100
//             SPACE=(TRK,(15,15),RLSE),                                00007200
//             UNIT=SYSDA                                               00007300
//DD7       DD DSN=FISP.FILE.DK04O.EMAIL.AR70,
//             DISP=(MOD,DELETE,DELETE),                                00670001
//             DCB=(RECFM=FB,LRECL=81,BLKSIZE=27945),                   00680001
//             SPACE=(TRK,(2,2),RLSE),                                  00690001
//             UNIT=SYSDA                                               00700001
//DD8       DD DSN=FISP.FILE.DK04C.EMAIL.AR70,                          00004100
//             DISP=(MOD,DELETE,DELETE),                                00670001
//             DCB=(RECFM=FBA,BLKSIZE=27920,LRECL=80),                  00004300
//             SPACE=(TRK,(2,2)),                                       00004400
//             UNIT=SYSDA                                               00004500
//FAPPRINT  DD DSN=FISP.APPRINT.AR70,                                   00007400
//             DISP=(MOD,DELETE,DELETE),                                00007500
//             DCB=(RECFM=FBA,LRECL=133,BLKSIZE=23408),                 00007600
//             SPACE=(TRK,(150,150),RLSE),                              00007700
//             UNIT=SYSDA                                               00007800
//FAPPRNTN  DD DSN=FISP.APPRINT.AR70.NEW,                               00007400
//             DISP=(MOD,DELETE,DELETE),                                00007500
//             DCB=(RECFM=FBA,LRECL=133,BLKSIZE=23408),                 00007600
//             SPACE=(TRK,(150,150),RLSE),                              00007700
//             UNIT=SYSDA                                               00007800
//*====================================================
//*       EXTRACT DRIVER
//*          EXTRACT RECORDS FROM R4053-R4150-R4151-R4152 AND           00008100
//*          CREATE FAPXK00E FILE                                       00008200
//*====================================================                 00008300
//STEP03   EXEC PGM=FAPXK00,COND=((9,LT),(5,EQ),(6,EQ),(7,EQ))          00008400
//STEPLIB   DD DSN=FISP.FIS.LOADLIB,DISP=SHR
//          DD DSN=DB2P.DCA.LOAD,DISP=SHR
//          DD DSN=DB2F.DSNEXIT,DISP=SHR
//          DD DSN=DB2F.DSNLOAD,DISP=SHR
//SYSPRINT DD  SYSOUT=*
//SYSTSPRT DD  SYSOUT=*
//SYSTSIN  DD  *
 DSN SYSTEM(DB2F)
 RUN PROGRAM(FAPXK00) PLAN(FAPXK00)
/*
//*CNTRL01   DD SYSOUT=(,),OUTPUT=(*.OUT1,*.OUT2)                       00009300
//CONTROLR  DD DSN=FISP.APDAR70.FAPXK00.CR.D$APDAT..T$FTIME,            00009400
//             DISP=(NEW,CATLG,KEEP),                                   00009500
//             DCB=(RECFM=FBA,LRECL=133,BLKSIZE=23408),                 00009600
//             SPACE=(TRK,(2,2),RLSE),                                  00009700
//             UNIT=SYSDA                                               00009800
//SYSOUT    DD SYSOUT=*                                                 00009900
//SYSLST    DD SYSOUT=*                                                 00010000
//SYSUDUMP  DD SYSOUT=D,                                                00010100
//             DEST=LOCAL                                               00010200
//SYSDBOUT  DD SYSOUT=*                                                 00010300
//RUNPARMS  DD DSN=FISP.FILE.CHECKS.RUNPARMS,                           00010400
//             DISP=SHR                                                 00010500
//**********************************************                        00010600
//*  DO NOT CHANGE THE TERM 'ARZ270' IN EXTIFILE                        00010700
//**********************************************                        00010800
//EXTIFILE  DD DSN=SISP.ARZ270.SARX400.SAR400A.AP$AR70DATE,             00010900
//             DISP=SHR                                                 00011000
//FAPXK00E  DD DSN=&&XK00E,                                             00011100
//             DISP=(NEW,PASS,DELETE),                                  00011200
//             DCB=(RECFM=FB,LRECL=206,BLKSIZE=6180),                   00011300
//             SPACE=(TRK,(15,15),RLSE),                                00011400
//             UNIT=VIO                                                 00011500
//FAPXFRCE  DD DUMMY,DCB=BLKSIZE=206
//SYSIN     DD *
 000001 ISISDICT
//*============================================================
//* SETS ZEKE VARIABLE TO "STOP". WATCHDOG FOR "WRAPPING-UP"
//* THE CHECKWRITE PROCESS AND RUNNING BANKFILE JOB
//*============================================================
//SETVAR   EXEC PGM=ZEKESET,COND=((9,LT),(5,EQ),(6,EQ),(7,EQ))
//SYSPRINT DD SYSOUT=*
//SYSIN    DD *
  SET VAR $APDAR70 EQ 'STOP'                                            00007900
/*                                                                      00008000
//*====================================================                 00011800
//*       SORT FAPXK00E EXTRACT FILE                                    00011900
//*====================================================                 00012000
//STEP04   EXEC PGM=SORT,COND=(0,NE)                                    00012100
//SYSOUT    DD SYSOUT=*                                                 00012200
//SORTIN    DD DSN=&&XK00E,                                             00012300
//             DISP=(OLD,DELETE)                                        00012400
//SORTOUT   DD DSN=FISP.FILE.XK00E.AR70,                                00012500
//             MGMTCLAS=AS,DISP=(NEW,CATLG,DELETE),                     00012600
//             DCB=(RECFM=FB,LRECL=206,BLKSIZE=6180),                   00012700
//             SPACE=(TRK,(15,15),RLSE),                                00012800
//             UNIT=SYSDA                                               00012900
//SORTWK01  DD SPACE=(TRK,(150,150)),                                   00013000
//             UNIT=SYSDA                                               00013100
//SORTWK02  DD SPACE=(TRK,(150,150)),                                   00013200
//             UNIT=SYSDA                                               00013300
//SORTWK03  DD SPACE=(TRK,(150,150)),                                   00013400
//             UNIT=SYSDA                                               00013500
//SORTWK04  DD SPACE=(TRK,(150,150)),                                   00013600
//             UNIT=SYSDA                                               00013700
//SYSIN     DD *                                                        00013800
   SORT FIELDS=(1,56,CH,A)
/*                                                                      00013900
//*====================================================                 00014000
//*       REQUEST GENERATOR DRIVER                                      00014100
//*====================================================                 00014200
//STEP05   EXEC PGM=FAPUK01,COND=((9,LT),(5,EQ),(6,EQ),(7,EQ))          00014300
//STEPLIB   DD DSN=FISP.FIS.LOADLIB,DISP=SHR
//          DD DSN=DB2P.DCA.LOAD,DISP=SHR
//          DD DSN=DB2F.DSNEXIT,DISP=SHR
//          DD DSN=DB2F.DSNLOAD,DISP=SHR
//SYSPRINT DD  SYSOUT=*
//SYSTSPRT DD  SYSOUT=*
//SYSTSIN  DD  *
 DSN SYSTEM(DB2F)
 RUN PROGRAM(FAPUK01) PLAN(FAPUK01)
/*
//CONTROLR  DD DSN=FISP.APDAR70.FAPUK01.CR.D$APDAT..T$FTIME,            00015200
//             DISP=(NEW,CATLG,KEEP),                                   00015300
//             DCB=(RECFM=FBA,LRECL=133,BLKSIZE=23408),                 00015400
//             SPACE=(TRK,(2,2),RLSE),                                  00015500
//             UNIT=SYSDA                                               00015600
//SYSOUT    DD SYSOUT=*                                                 00015700
//SYSLST    DD SYSOUT=*                                                 00015800
//SYSUDUMP  DD SYSOUT=D,                                                00015900
//             DEST=LOCAL                                               00016000
//SYSDBOUT  DD SYSOUT=*                                                 00016100
//RUNPARMS  DD DSN=FISP.FILE.CHECKS.RUNPARMS,                           00016200
//             DISP=SHR                                                 00016300
//FAPXK00E  DD DSN=FISP.FILE.XK00E.AR70,                                00016400
//             DISP=SHR                                                 00016500
//SYSIN     DD *
 000001 ISISDICT
//*====================================================                 00016800
//*       REQUEST SERVER                                                00016900
//*====================================================                 00017000
//STEP06   EXEC PGM=FAPUK02,COND=((9,LT),(5,EQ),(6,EQ),(7,EQ))          00017100
//STEPLIB   DD DSN=FISP.FIS.LOADLIB,DISP=SHR
//          DD DSN=DB2P.DCA.LOAD,DISP=SHR
//          DD DSN=DB2F.DSNEXIT,DISP=SHR
//          DD DSN=DB2F.DSNLOAD,DISP=SHR
//SYSPRINT DD  SYSOUT=*
//SYSTSPRT DD  SYSOUT=*
//SYSTSIN  DD  *
 DSN SYSTEM(DB2F)
 RUN PROGRAM(FAPUK02) PLAN(FAPUK02)
/*
//CONTROLR  DD DSN=FISP.APDAR70.FAPUK02.CR.D$APDAT..T$FTIME,            00018000
//             DISP=(NEW,CATLG,KEEP),                                   00018100
//             DCB=(RECFM=FBA,LRECL=133,BLKSIZE=23408),                 00018200
//             SPACE=(TRK,(2,2),RLSE),                                  00018300
//             UNIT=SYSDA                                               00018400
//SYSOUT    DD SYSOUT=*                                                 00018500
//SYSLST    DD SYSOUT=*                                                 00018600
//SYSUDUMP  DD SYSOUT=D,                                                00018700
//             DEST=LOCAL                                               00018800
//SYSDBOUT  DD SYSOUT=*                                                 00018900
//RUNPARMS  DD DSN=FISP.FILE.CHECKS.RUNPARMS,                           00019000
//             DISP=SHR                                                 00019100
//*SARX400   DD DSN=SISP.SARX400.AP99081,                               00019200
//SARX400   DD DSN=SISP.SARX400.AP$AR70ADDRSS,                          00019200
//             DISP=SHR                                                 00019300
//XADCTXT   DD DUMMY
//FAPUK02E  DD DSN=&&UK02E,                                             00019400
//             DISP=(NEW,PASS),                                         00019500
//             DCB=(RECFM=FB,LRECL=344,BLKSIZE=23392),                  00019600
//             SPACE=(TRK,(15,15),RLSE),                                00019700
//             UNIT=VIO                                                 00019800
//SYSIN     DD *
 000001 ISISDICT
//*====================================================                 00020100
//*       SORT FAPUK02E EXTRACT FILE                                    00020200
//*====================================================                 00020300
//STEP07   EXEC PGM=SORT,COND=((9,LT),(5,EQ),(6,EQ),(7,EQ))             00020400
//SYSOUT    DD SYSOUT=*                                                 00020500
//SORTIN    DD DSN=&&UK02E,                                             00020600
//             DISP=(OLD,DELETE)                                        00020700
//SORTOUT   DD DSN=FISP.FILE.UK02E.AR70,                                00020800
//             MGMTCLAS=AS,DISP=(NEW,CATLG,DELETE),                     00020900
//             DCB=(RECFM=FB,LRECL=344,BLKSIZE=23392),                  00021000
//             SPACE=(TRK,(15,15),RLSE),                                00021100
//             UNIT=SYSDA                                               00021200
//SORTWK01  DD SPACE=(TRK,(150,150)),                                   00021300
//             UNIT=SYSDA                                               00021400
//SORTWK02  DD SPACE=(TRK,(150,150)),                                   00021500
//             UNIT=SYSDA                                               00021600
//SORTWK03  DD SPACE=(TRK,(150,150)),                                   00021700
//             UNIT=SYSDA                                               00021800
//SORTWK04  DD SPACE=(TRK,(150,150)),                                   00021900
//             UNIT=SYSDA                                               00022000
//SYSIN     DD *                                                        00022100
   SORT FIELDS=(1,75,CH,A,76,1,CH,D)
/*                                                                      00022200
//*====================================================                 00022300
//*             CHECK NUMBER ASSIGNOR                                   00022400
//*====================================================                 00022500
//STEP08   EXEC PGM=FAPCK03,COND=((9,LT),(5,EQ),(6,EQ),(7,EQ))          00022600
//STEPLIB   DD DSN=FISP.FIS.LOADLIB,DISP=SHR
//          DD DSN=DB2P.DCA.LOAD,DISP=SHR
//          DD DSN=DB2F.DSNEXIT,DISP=SHR
//          DD DSN=DB2F.DSNLOAD,DISP=SHR
//SYSPRINT DD  SYSOUT=*
//SYSTSPRT DD  SYSOUT=*
//SYSTSIN  DD  *
 DSN SYSTEM(DB2F)
 RUN PROGRAM(FAPCK03) PLAN(FAPCK03)
/*
//CONTROLR  DD DSN=FISP.APDAR70.FAPCK03.CR.D$APDAT..T$FTIME,            00023500
//             DISP=(NEW,CATLG,KEEP),                                   00023600
//             DCB=(RECFM=FBA,LRECL=133,BLKSIZE=23408),                 00023700
//             SPACE=(TRK,(2,2),RLSE),                                  00023800
//             UNIT=SYSDA                                               00023900
//SYSOUT    DD SYSOUT=*                                                 00024000
//SYSLST    DD SYSOUT=*                                                 00024100
//SYSUDUMP  DD SYSOUT=D,                                                00024200
//             DEST=LOCAL                                               00024300
//SYSDBOUT  DD SYSOUT=*                                                 00024400
//RUNPARMS  DD DSN=FISP.FILE.CHECKS.RUNPARMS,                           00024500
//             DISP=SHR                                                 00024600
//RESTART   DD DUMMY                                                    00024700
//FAPUK02E  DD DSN=FISP.FILE.UK02E.AR70,                                00024800
//             DISP=SHR                                                 00024900
//FAPCK03O  DD DSN=&&CK03O,                                             00025000
//             DISP=(NEW,PASS),                                         00025100
//             DCB=(RECFM=FB,LRECL=408,BLKSIZE=27744),                  00025200
//             SPACE=(TRK,(15,15),RLSE),                                00025300
//             UNIT=VIO                                                 00025400
//FAPDK04O  DD DUMMY                                                    00025500
//SYSIN     DD *
 000001 ISISDICT
//*====================================================                 00025800
//*       SORT FAPCK030 FILE                                            00025900
//*====================================================                 00026000
//STEP09   EXEC PGM=SORT,COND=((9,LT),(5,EQ),(6,EQ),(7,EQ))             00026100
//SYSOUT    DD SYSOUT=*                                                 00026200
//SORTIN    DD DSN=&&CK03O,                                             00026300
//             DISP=(OLD,DELETE)                                        00026400
//SORTOUT   DD DSN=FISP.FILE.CK03O.AR70,                                00026500
//             DISP=(NEW,CATLG,DELETE),                                 00026600
//             DCB=(RECFM=FB,LRECL=408,BLKSIZE=27744),                  00026700
//             SPACE=(TRK,(15,15),RLSE),                                00026800
//             UNIT=SYSDA                                               00026900
//SORTWK01  DD SPACE=(TRK,(150,150)),                                   00027000
//             UNIT=SYSDA                                               00027100
//SORTWK02  DD SPACE=(TRK,(150,150)),                                   00027200
//             UNIT=SYSDA                                               00027300
//SORTWK03  DD SPACE=(TRK,(150,150)),                                   00027400
//             UNIT=SYSDA                                               00027500
//SORTWK04  DD SPACE=(TRK,(150,150)),                                   00027600
//             UNIT=SYSDA                                               00027700
//SYSIN     DD *                                                        00027800
   SORT FIELDS=(1,76,CH,A)
/*                                                                      00027900
//*====================================================                 00028000
//*       CHECK PRINT DRIVER                                            00028100
//*====================================================                 00028200
//STEP10   EXEC PGM=FAPDK04,COND=((9,LT),(5,EQ),(6,EQ),(7,EQ))          00028300
//STEPLIB   DD DSN=FISP.FIS.LOADLIB,DISP=SHR
//          DD DSN=DB2P.DCA.LOAD,DISP=SHR
//          DD DSN=DB2F.DSNEXIT,DISP=SHR
//          DD DSN=DB2F.DSNLOAD,DISP=SHR
//SYSPRINT DD  SYSOUT=*
//SYSTSPRT DD  SYSOUT=*
//SYSTSIN  DD  *
 DSN SYSTEM(DB2F)
 RUN PROGRAM(FAPDK04) PLAN(FAPDK04)
/*
//CONTROLR  DD DSN=FISP.APDAR70.FAPDK04.CR.D$APDAT..T$FTIME,            00029200
//             DISP=(NEW,CATLG,KEEP),                                   00029300
//             DCB=(RECFM=FBA,LRECL=133,BLKSIZE=23408),                 00029400
//             SPACE=(TRK,(555,2),RLSE),                                00029500
//             UNIT=SYSDA                                               00029600
//SYSOUT    DD SYSOUT=*                                                 00029700
//SYSLST    DD SYSOUT=*                                                 00029800
//SYSUDUMP  DD SYSOUT=D,                                                00029900
//             DEST=LOCAL                                               00030000
//SYSDBOUT  DD SYSOUT=*                                                 00030100
//SARX400   DD DSN=SISP.SARX400.AP$AR70ADDRSS,                          00030200
//             DISP=SHR                                                 00030300
//CHECKS    DD DSN=FISP.APPRINT.AR70,                                   00030400
//             DISP=(NEW,CATLG,DELETE),                                 00030500
//             DCB=(RECFM=FBA,LRECL=133,BLKSIZE=23408),                 00030600
//             SPACE=(TRK,(2505,450),RLSE),                             00030700
//*orig        SPACE=(TRK,(150,150),RLSE),                              00030700
//             UNIT=SYSDA                                               00030800
//RUNPARMS  DD DSN=FISP.FILE.CHECKS.RUNPARMS,                           00030900
//             DISP=SHR                                                 00031000
//RESTART   DD DUMMY,                                                   00031100
//             DCB=BLKSIZE=80                                           00031200
//FAPCK03O  DD DSN=FISP.FILE.CK03O.AR70,                                00031300
//             DISP=SHR                                                 00031400
//FAPDK04O  DD DSN=&&DK04O,                                             00031500
//             DISP=(NEW,PASS),                                         00031600
//             DCB=(RECFM=FB,LRECL=414,BLKSIZE=23184),                  00031700
//             SPACE=(TRK,(450,150),RLSE),                              00031800
//*orig        SPACE=(TRK,(15,15),RLSE),                                00031800
//             UNIT=VIO                                                 00031900
//SYSIN     DD *
 000001 ISISDICT
//*====================================================                 00028000
//*       CHECK PRINT DRIVER C-SERIES                                   00028100
//*====================================================                 00028200
//STEP10B  EXEC PGM=FAPDK04C,COND=((9,LT),(5,EQ),(6,EQ),(7,EQ))         00028300
//STEPLIB   DD DSN=FISP.FIS.LOADLIB,DISP=SHR
//          DD DSN=DB2P.DCA.LOAD,DISP=SHR
//          DD DSN=DB2F.DSNEXIT,DISP=SHR
//          DD DSN=DB2F.DSNLOAD,DISP=SHR
//SYSPRINT DD  SYSOUT=*
//SYSTSPRT DD  SYSOUT=*
//SYSTSIN  DD  *
 DSN SYSTEM(DB2F)
 RUN PROGRAM(FAPDK04C) PLAN(FAPDK04C)
/*
//CONTROLR  DD DSN=FISP.APDAR70.FAPDK04.CRN.D$APDAT..T$FTIME,           00029200
//             DISP=(NEW,CATLG,KEEP),                                   00029300
//             DCB=(RECFM=FBA,LRECL=133,BLKSIZE=23408),                 00029400
//             SPACE=(TRK,(555,2),RLSE),                                00029500
//             UNIT=SYSDA                                               00029600
//SYSOUT    DD SYSOUT=*                                                 00029700
//SYSLST    DD SYSOUT=*                                                 00029800
//SYSUDUMP  DD SYSOUT=D,                                                00029900
//             DEST=LOCAL                                               00030000
//SYSDBOUT  DD SYSOUT=*                                                 00030100
//SARX400   DD DSN=SISP.SARX400.AP$AR70ADDRSS,                          00030200
//             DISP=SHR                                                 00030300
//CHECKS    DD DSN=FISP.APPRINT.AR70.NEW,                               00030400
//             DISP=(NEW,CATLG,DELETE),                                 00030500
//             DCB=(RECFM=FBA,LRECL=133,BLKSIZE=23408),                 00030600
//             SPACE=(TRK,(2505,450),RLSE),                             00030700
//             UNIT=SYSDA                                               00030800
//RUNPARMS  DD DSN=FISP.FILE.CHECKS.RUNPARMS,                           00030900
//             DISP=SHR                                                 00031000
//RESTART   DD DUMMY,                                                   00031100
//             DCB=BLKSIZE=80                                           00031200
//FAPCK03O  DD DSN=FISP.FILE.CK03O.AR70,                                00031300
//             DISP=SHR                                                 00031400
//FAPDK04O  DD DSN=&&DK04ON,                                            00031500
//             DISP=(NEW,PASS),                                         00031600
//             DCB=(RECFM=FB,LRECL=414,BLKSIZE=23184),                  00031700
//             SPACE=(TRK,(450,150),RLSE),                              00031800
//             UNIT=VIO                                                 00031900
//SYSIN     DD *
 000001 ISISDICT
//*====================================================                 00032200
//*            SORT FAPDK04O FILE                                       00032300
//*====================================================                 00032400
//STEP11   EXEC PGM=SORT,COND=((9,LT),(5,EQ),(6,EQ),(7,EQ))             00032500
//SYSOUT    DD SYSOUT=*                                                 00032600
//SORTIN    DD DSN=&&DK04O,                                             00032700
//             DISP=(OLD,PASS)                                          00032800
//SORTOUT   DD DSN=FISP.FILE.DK04O.AR70,                                00032900
//             DISP=(NEW,CATLG,DELETE),                                 00033000
//             DCB=(RECFM=FB,LRECL=414,BLKSIZE=23184),                  00033100
//             SPACE=(TRK,(15,15),RLSE),                                00033200
//             UNIT=SYSDA                                               00033300
//SORTWK01  DD SPACE=(TRK,(150,150)),                                   00033400
//             UNIT=SYSDA                                               00033500
//SORTWK02  DD SPACE=(TRK,(150,150)),                                   00033600
//             UNIT=SYSDA                                               00033700
//SORTWK03  DD SPACE=(TRK,(150,150)),                                   00033800
//             UNIT=SYSDA                                               00033900
//SORTWK04  DD SPACE=(TRK,(150,150)),                                   00034000
//             UNIT=SYSDA                                               00034100
//SYSIN     DD *                                                        00034200
   SORT FIELDS=(1,43,CH,D)
/*                                                                      00034300
//*====================================================                 00032500
//* COPY FAPDK04O FILE INTO the GDG file for DW upload                  00032600
//*====================================================                 00032700
//*
//STEP11A  EXEC PGM=IEBGENER                                            00032800
//*
//SYSUT1    DD DSN=FISP.FILE.DK04O.AR70,DISP=SHR                        00033200
//*
//SYSUT2    DD DSN=FISP.APCHKS.DK04O.DW.CHKS(+1),                       00033000
//             DISP=(NEW,CATLG),
//             DCB=(RECFM=FB,LRECL=414),
//             SPACE=(CYL,(2,2),RLSE),                                  00003300
//             UNIT=SYSALLDA
//*                                                                     00033300
//SYSPRINT  DD SYSOUT=*                                                 00032900
//SYSIN     DD DUMMY                                                    00033400
//*
//*====================================================                 00034400
//*            SORT FAPDK04O FOR CONFIRMATION DOCUMENT                  00034500
//*====================================================                 00034600
//STEP12   EXEC PGM=SORT,COND=((9,LT),(5,EQ),(6,EQ),(7,EQ))             00034700
//SYSOUT    DD SYSOUT=*                                                 00034800
//SORTIN    DD DSN=&&DK04O,                                             00034900
//             DISP=(OLD,DELETE)                                        00035000
//SORTOUT   DD DSN=FISP.FILE.DK04O.CONF.AR70,                           00035100
//             DISP=(NEW,CATLG,DELETE),                                 00035200
//             DCB=(RECFM=FB,LRECL=414,BLKSIZE=23184),                  00035300
//             SPACE=(TRK,(150,75),RLSE),                               00035400
//             UNIT=SYSALLDA,                                           00035500
//             VOL=SER=APC003                                           00035600
//SORTWK01  DD SPACE=(TRK,(150,150)),                                   00035700
//             UNIT=SYSDA                                               00035800
//SORTWK02  DD SPACE=(TRK,(150,150)),                                   00035900
//             UNIT=SYSDA                                               00036000
//SORTWK03  DD SPACE=(TRK,(150,150)),                                   00036100
//             UNIT=SYSDA                                               00036200
//SORTWK04  DD SPACE=(TRK,(150,150)),                                   00036300
//             UNIT=SYSDA                                               00036400
//SYSIN     DD *                                                        00036500
    INCLUDE COND=(23,1,CH,EQ,C'A')
    SORT FIELDS=(1,30,CH,A,31,8,CH,D,74,3,CH,A)
/*                                                                      00036600
//*====================================================                 00036700
//*       ACH PRINT                                                     00036800
//*====================================================                 00036900
//STEP13   EXEC PGM=UAPDK04B,COND=((9,LT),(5,EQ),(6,EQ),(7,EQ))         00037000
//STEPLIB   DD DSN=FISP.FIS.LOADLIB,DISP=SHR
//SYSOUT    DD SYSOUT=*                                                 00037900
//SYSLST    DD SYSOUT=*                                                 00038000
//CONTROLR  DD DSN=FISP.APDAR70.FAPDK04B.CR.D$APDAT..T$FTIME,           00038100
//             DISP=(NEW,CATLG,KEEP),                                   00038200
//             DCB=(RECFM=FBA,LRECL=133,BLKSIZE=23408),                 00038300
//             SPACE=(TRK,(2,2),RLSE),                                  00038400
//             UNIT=SYSDA                                               00038500
//SYSUDUMP  DD SYSOUT=D,                                                00038600
//             DEST=LOCAL                                               00038700
//SYSDBOUT  DD SYSOUT=*                                                 00038800
//RPTPARMS  DD *
*PRINT CONF NOTICE Y
*PRINT EMAIL N
//RESTART   DD DUMMY,                                                   00038900
//             DCB=BLKSIZE=80                                           00039000
//FAPDK04O  DD DSN=FISP.FILE.DK04O.CONF.AR70,                           00039100
//             DISP=SHR                                                 00039200
//REPORT01  DD SYSOUT=(,),                                              00039300
//             OUTPUT=(*.POST1,*.POST2)                                 00039400
/*                                                                      00110000
//*   all year :  *PRINT CONF NOTICE Y
//*   Christmas:  *PRINT CONF NOTICE N
//*====================================================                 00110000
//*       ACH EMAIL SEND                                                00025500
//* AS PER ACR 46399, COPY NOT SENT TO emnotifi@ucsd.edu
//*====================================================                 00110000
//STEP14   EXEC PGM=UAPDK04S                                            00025700
//STEPLIB   DD DSN=FISP.FIS.LOADLIB,DISP=SHR
//SYSOUT    DD SYSOUT=*                                                 00026700
//SYSLST    DD SYSOUT=*                                                 00026800
//CONTROLR  DD DSN=FISP.APDAR70.UAPDK04S.CR.D$APDAT..T$FTIME,           00650001
//             DISP=(NEW,CATLG,KEEP),                                   00670001
//             DCB=(RECFM=FBA,LRECL=133,BLKSIZE=23408),                 00680001
//             SPACE=(TRK,(2,2),RLSE),                                  00690001
//             UNIT=SYSDA                                               00700001
//SYSUDUMP  DD SYSOUT=D,                                                00026900
//             DEST=LOCAL                                               00027000
//SYSDBOUT  DD SYSOUT=*                                                 00027100
//FAPDK04O  DD DSN=FISP.FILE.DK04O.CONF.AR70,                           00028000
//             DISP=SHR                                                 00028100
//PARMIN    DD *
*PRINT EMAIL Y
//REPORT01  DD DSN=FISP.FILE.DK04O.EMAIL.AR70,
//             DISP=(NEW,CATLG,KEEP),                                   00670001
//             DCB=(RECFM=FB,LRECL=81,BLKSIZE=27945),                   00680001
//             SPACE=(TRK,(750,550),RLSE),                              00690001
//*            SPACE=(TRK,(90,45),RLSE),                                00690001
//             UNIT=SYSDA                                               00700001
//REPORT02  DD DSN=FISP.FILE.DK04C.EMAIL.SENT,
//             DISP=MOD
/*
//*===================================================================  00003500
//*THIS STRIPS OFF THE FIRST CHARACTER (CARRIAGE CONTROL)               00003500
//*===================================================================  00003500
//STEP15   EXEC PGM=SYNCSORT,COND=(0,NE)                                00003600
//SYSOUT    DD SYSOUT=*                                                 00003700
//SORTIN    DD DSN=FISP.FILE.DK04O.EMAIL.AR70,                          00003900
//             DISP=SHR                                                 00004000
//SORTOUT   DD DSN=FISP.FILE.DK04C.EMAIL.AR70.D$APDAT,                  00004100
//             DISP=(NEW,CATLG,DELETE),                                 00004200
//             DCB=(RECFM=FBA,BLKSIZE=27920,LRECL=80),                  00004300
//*            SPACE=(TRK,(90,45),RLSE),                                00004400
//             SPACE=(TRK,(750,550),RLSE),                              00004400
//             UNIT=SYSDA                                               00004500
//SYSPRINT  DD SYSOUT=*                                                 00003800
//SORTWK01  DD UNIT=SYSDA,SPACE=(TRK,(150,150))                         00004100
//SORTWK02  DD UNIT=SYSDA,SPACE=(TRK,(150,150))                         00004100
//SORTWK03  DD UNIT=SYSDA,SPACE=(TRK,(150,150))                         00004100
//SORTWK04  DD UNIT=SYSDA,SPACE=(TRK,(150,150))                         00004100
//SYSIN     DD *                                                        00004600
           SORT FIELDS=COPY
           OUTFIL OUTREC=(1:2,80)                                       00041100
/*
//*====================================================                 00039500
//*** END OF PHASE ONE OF THE CHECK RUN                                 00039600
//*** THIS SORTED FILE IS PASSED TO                                     00039700
//*** THE FIRST STEP IN CHECK RUN PHASE TWO                             00039800
//*====================================================                 00039900
//*============================================================         00040000
//* PRINT CONFIRMATION DOCUMENTS REPORT                                 00040100
//*============================================================         00040200
//STEP30   EXEC PGM=IEBGENER                                            00040300
//SYSPRINT  DD SYSOUT=*                                                 00040400
//SYSUDUMP  DD SYSOUT=D,                                                00040500
//             DEST=LOCAL                                               00040600
//SYSUT1    DD DSN=FISP.APDAR70.FAPDK04B.CR.D$APDAT..T$FTIME,           00040700
//*SYSUT1    DD DSN=FISP.APDAR70.FAPDK04B.CR.D122910.T200601,
//             DISP=(OLD)                                               00040800
//SYSUT2    DD SYSOUT=(,),                                              00040900
//             OUTPUT=(*.OUT1,*.OUT2,*.OUT3)                            00041000
//SYSIN     DD DUMMY                                                    00041100
/*
//*============================================================         00041200
//* PRINT MULTIPLE COPIES OF CONTROLR                                   00041300
//*============================================================         00041400
//STEP40   EXEC PGM=IEBGENER                                            00041500
//SYSPRINT  DD SYSOUT=*                                                 00041600
//SYSUDUMP  DD SYSOUT=D,                                                00041700
//             DEST=LOCAL                                               00041800
//SYSUT1    DD DSN=FISP.APDAR70.FAPXK00.CR.D$APDAT..T$FTIME,            0041900
//*SYSUT1    DD DSN=FISP.APDAR70.FAPXK00.CR.D122910.T200601,
//             DISP=(OLD)                                               00042000
//SYSUT2    DD SYSOUT=(,),                                              00042100
//             OUTPUT=(*.OUT1,*.OUT3,*.OUT4)                            00041000
//SYSIN     DD DUMMY                                                    00042300
/*                                                                      00004700
//*============================================================
//* PRINT CHECK REQUEST REPORT IF STEP03 ABENDS WITH CC=16
//*============================================================
//STEP40B  EXEC PGM=IEBGENER,COND=(16,NE,STEP03)
//SYSPRINT  DD SYSOUT=*
//SYSUDUMP  DD SYSOUT=D,
//             DEST=LOCAL
//SYSUT1    DD DSN=FISP.APDAR70.FAPXK00.CR.D$APDAT..T$FTIME,            00041900
//*SYSUT1    DD DSN=FISP.APDAR70.FAPXK00.CR.D122910.T200601,            00041900
//             DISP=(OLD)
//SYSUT2    DD SYSOUT=(,),
//             OUTPUT=(*.OUT1,*.OUT2,*.OUT3,*.OUT4)
//SYSIN     DD DUMMY
/*
//*============================================================         00042500
//* SUBMIT ACH MAIL JOB IF ACH ACTIVITY WAS GENERATED
//*============================================================         00042500
//ADDMAIL  EXEC PGM=ZEKESET,COND=(0,NE)
//SYSPRINT  DD SYSOUT=*                                                 00000500
//SYSIN     DD *                                                        00000600
  SET SCOM 'ZADD EV 2628 REBUILD'                                       00006**2
/*                                                                      00000700
//*============================================================         00042500
//*      RENAMER OF EXTERNAL FILE
//*============================================================
//RENAMER  EXEC PGM=IDCAMS
//SYSPRINT  DD SYSOUT=*
//SYSIN     DD *
   ALTER      SISP.ARZ270.SARX400.SAR400A.AP$AR70DATE -
              NEWNAME(SISP.ARZ270.SARX400.SAR400A.AP$AR70DATE..DONE)
/*
//*============================================================
//* SUBMIT UPDTAR7- (EV 3238)
//*============================================================
//STEP77   EXEC PGM=ZEKESET
//SYSPRINT DD   SYSOUT=*
//SYSIN  DD   *
   SET SCOM 'ZADD EV 3238 REBUILD'
/*
//*
//*============================================================
//* THE FOLLOWING STEP WILL SET CC 223 IF ANY OF THE JOB STEPS
//* ABEND OR SET AN 'UNACCEPTABLE' CONDITION CODE.
//*============================================================
//STOPZEKE EXEC STOPZEKE
//*
//*================ E N D  O F  J C L  APDAR70  ========                00043000
