//APDTARE  JOB (SYS000),'PRDCTL',MSGCLASS=F,MSGLEVEL=(1,1),             00000100
//*====================================================                 00000200
//*       RESTART=STEP30,                                               00000300
//*====================================================                 00000400
//        NOTIFY=APCPSB,CLASS=K,REGION=0M                               00000500
//*====================================================                 00000600
//*====================================================
//* If ABENDS in STEP06 - RESTART in STEP06
//*====================================================
//* STEP14 CONTAINS CASE-SENSITIVE CODE,                                00000600
//*    DO NOT CHANGE ANY LOWERCASE TO UPPERCASE                         00000600
//*====================================================                 00000600
//*====================================================                 00000600
//*  YOU ** MUST ** SUBMIT THIS JOB THRU ZEKE !                         00000700
//*++++++++++++++++++++++++++                                           00000800
//*    ZEKE EVENT # 1916                                                00000900
//*++++++++++++++++++++++++++                                           00001000
//*====================================================                 00001100
//*OUTSPEC OUTPUT LINECT=66,FORMS=IFIS                                  00001200
/*JOBPARM LINECT=0
//OUT1 OUTPUT CLASS=G,FORMS=A002,DEST=LOCAL,GROUPID=TARECHKS            00001300
//OUT2 OUTPUT CLASS=4,FORMS=A002,DEST=LOCAL,GROUPID=BACKUP1             00001400
//OUT3 OUTPUT CLASS=3,FORMS=A002,DEST=LOCAL,GROUPID=BACKUP1             00001400
//POST1 OUTPUT CLASS=S,FORMS=P075,DEST=LOCAL,GROUPID=TARECONF           00001500
//POST2 OUTPUT CLASS=2,FORMS=P075,DEST=LOCAL,GROUPID=BACKUP2            00001600
//* (OUT2 CHANGED FROM 'G' TO '4' FOR PRINT REDUCTION PROJECT ONLY)
//* (OUT3 CHANGED FROM 'G' TO '3' FOR PRINT REDUCTION PROJECT ONLY)
//* (POST2 CHANGED FROM 'G' TO '2' FOR PRINT REDUCTION PROJECT ONLY)
//*====================================================
//* CHECK THE STATUS OF THE ORIGIN, CAN ONLY RUN THIS JOB
//* IF THE ORIGIN STATUS IS 'INACTIVE'
//*
//* STATUS OF 'STOP' OR 'GO' WILL ABEND IN STEP00A WITH
//* A RETURN CODE OF 16
//*====================================================
//STEP00   EXEC PGM=IEBGENER
//SYSPRINT DD SYSOUT=Z
//SYSUT1 DD *
      APDTARE = ** $APDTARE **
/*
//SYSUT2  DD DSN=FISP.CHKWRITE.STATUS,
//           DISP=SHR
//SYSIN DD DUMMY
/*
//*============================================================
//STEP00A  EXEC PGM=UAPSTCHK
//STEPLIB   DD DSN=FISP.FIS.LOADLIB,DISP=SHR
//STATUS01  DD DSN=FISP.CHKWRITE.STATUS,DISP=SHR
//SYSOUT    DD SYSOUT=*
//SYSUDUMP  DD SYSOUT=*
//*
//*====================================================                 00001700
//STEP01   EXEC PGM=FAPTK00,COND=((9,LT),(5,EQ),(6,EQ),(7,EQ))          00001800
//STEPLIB   DD DSN=FISP.FIS.LOADLIB,DISP=SHR
//          DD DSN=DB2P.DCA.LOAD,DISP=SHR
//          DD DSN=DB2F.DSNEXIT,DISP=SHR
//          DD DSN=DB2F.DSNLOAD,DISP=SHR
//SYSPRINT DD  SYSOUT=*
//SYSTSPRT DD  SYSOUT=*
//SYSTSIN  DD  *
 DSN SYSTEM(DB2F)
 RUN PROGRAM(FAPTK00) PLAN(FAPTK00)
/*
//SYSOUT    DD SYSOUT=*                                                 00002700
//SYSLST    DD SYSOUT=*                                                 00002800
//CONTROLR  DD DSN=FISP.APDTARE.FAPTK00.CR.D$APDAT..T$FTIME,            00002900
//             DISP=(NEW,CATLG,KEEP),                                   00003000
//             DCB=(RECFM=FBA,LRECL=133,BLKSIZE=23408),                 00003100
//             SPACE=(TRK,(2,2),RLSE),                                  00003200
//             UNIT=SYSDA                                               00003300
//SYSUDUMP  DD SYSOUT=D,                                                00003400
//             DEST=LOCAL                                               00003500
//SYSDBOUT  DD SYSOUT=*                                                 00003600
//CARDFILE  DD *                                                        00003700
01 APCPRD   TARE 01 $APY.$APD            0025                           00170012
/*                                                                      00003800
//RUNPARMS  DD DSN=FISP.FILE.CHECKS.RUNPARMS,                           00003900
//             DISP=SHR                                                 00004000
//SYSIN     DD *
 000001 ISISDICT
//*====================================================                 00004300
//*       DELETE CATALOGED FILES                                        00004400
//*====================================================                 00004500
//STEP02   EXEC PGM=IEFBR14,COND=((9,LT),(5,EQ),(6,EQ),(7,EQ))          00004600
//DD1       DD DSN=FISP.FILE.XK00E.TARE,                                00004700
//             DISP=(MOD,DELETE,DELETE),                                00004800
//             DCB=(RECFM=FB,LRECL=206,BLKSIZE=6180),                   00004900
//             SPACE=(TRK,(15,15),RLSE),                                00005000
//             UNIT=SYSDA                                               00005100
//DD2       DD DSN=FISP.TEMP.UK02E.TARE,                                00005200
//             DISP=(MOD,DELETE,DELETE),                                00005300
//             DCB=(RECFM=FB,LRECL=344,BLKSIZE=23392),                  00005400
//             SPACE=(TRK,(15,75),RLSE),                                00005500
//             UNIT=SYSDA                                               00005600
//DD3       DD DSN=FISP.FILE.UK02E.TARE,                                00005700
//             DISP=(MOD,DELETE,DELETE),                                00005800
//             DCB=(RECFM=FB,LRECL=344,BLKSIZE=23392),                  00005900
//             SPACE=(TRK,(15,15),RLSE),                                00006000
//             UNIT=SYSDA                                               00006100
//DD4       DD DSN=FISP.FILE.CK03O.TARE,                                00006200
//             DISP=(MOD,DELETE,DELETE),                                00006300
//             DCB=(RECFM=FB,LRECL=408,BLKSIZE=27744),                  00006400
//             SPACE=(TRK,(15,15),RLSE),                                00006500
//             UNIT=SYSDA                                               00006600
//DD5       DD DSN=FISP.FILE.DK04O.TARE,                                00006700
//             DISP=(MOD,DELETE,DELETE),                                00006800
//             DCB=(RECFM=FB,LRECL=414,BLKSIZE=23184),                  00006900
//             SPACE=(TRK,(15,15),RLSE),                                00007000
//             UNIT=SYSDA                                               00007100
//DD6       DD DSN=FISP.FILE.DK04O.CONF.TARE,                           00007200
//             DISP=(MOD,DELETE,DELETE),                                00007300
//             DCB=(RECFM=FB,LRECL=414,BLKSIZE=23184),                  00007400
//             SPACE=(TRK,(15,75),RLSE),                                00007500
//             UNIT=SYSDA                                               00007600
//DD7       DD DSN=FISP.FILE.DK04O.EMAIL.TARE,
//             DISP=(MOD,DELETE,DELETE),                                00007800
//             DCB=(RECFM=FB,LRECL=81,BLKSIZE=27945),                   00680001
//             SPACE=(TRK,(2,2),RLSE),                                  00690001
//             UNIT=SYSDA                                               00700001
//DD8       DD DSN=FISP.FILE.DK04C.EMAIL.TARE,                          00004100
//             DISP=(MOD,DELETE,DELETE),                                00007800
//             DCB=(RECFM=FBA,BLKSIZE=27920,LRECL=80),                  00004300
//             SPACE=(TRK,(2,2)),                                       00004400
//             UNIT=SYSDA                                               00004500
//FAPPRINT  DD DSN=FISP.APPRINT.TARE,                                   00007700
//             DISP=(MOD,DELETE,DELETE),                                00007800
//             DCB=(RECFM=FBA,LRECL=133,BLKSIZE=23408),                 00007900
//             SPACE=(TRK,(150,150),RLSE),                              00008000
//             UNIT=SYSDA                                               00008100
//FAPPRNTN  DD DSN=FISP.APPRINT.TARE.NEW,                               00007700
//             DISP=(MOD,DELETE,DELETE),                                00007800
//             DCB=(RECFM=FBA,LRECL=133,BLKSIZE=23408),                 00007900
//             SPACE=(TRK,(150,150),RLSE),                              00008000
//             UNIT=SYSDA                                               00008100
//*====================================================                 00008200
//*       EXTRACT DRIVER                                                00008300
//*          EXTRACT RECORDS FROM R4053-R4150-R4151-R4152 AND           00008400
//*          CREATE FAPXK00E FILE                                       00008500
//*====================================================                 00008600
//STEP03   EXEC PGM=FAPXK00,COND=((9,LT),(5,EQ),(6,EQ),(7,EQ))          00008700
//STEPLIB   DD DSN=FISP.FIS.LOADLIB,DISP=SHR
//          DD DSN=DB2P.DCA.LOAD,DISP=SHR
//          DD DSN=DB2F.DSNEXIT,DISP=SHR
//          DD DSN=DB2F.DSNLOAD,DISP=SHR
//SYSPRINT DD  SYSOUT=*
//SYSTSPRT DD  SYSOUT=*
//SYSTSIN  DD  *
 DSN SYSTEM(DB2F)
 RUN PROGRAM(FAPXK00) PLAN(FAPXK00)
/*
//CONTROLR  DD DSN=FISP.APDTARE.FAPXK00.CR.D$APDAT..T$FTIME,            00009600
//             DISP=(NEW,CATLG,KEEP),                                   00009700
//             DCB=(RECFM=FBA,LRECL=133,BLKSIZE=23408),                 00009800
//             SPACE=(TRK,(2,2),RLSE),                                  00009900
//             UNIT=SYSDA                                               00010000
//SYSOUT    DD SYSOUT=*                                                 00010100
//SYSLST    DD SYSOUT=*                                                 00010200
//SYSUDUMP  DD SYSOUT=D,                                                00010300
//             DEST=LOCAL                                               00010400
//SYSDBOUT  DD SYSOUT=*                                                 00010500
//RUNPARMS  DD DSN=FISP.FILE.CHECKS.RUNPARMS,                           00010600
//             DISP=SHR                                                 00010700
//EXTIFILE  DD DUMMY,                                                   00010800
//             DCB=BLKSIZE=206                                          00010900
//FAPXK00E  DD DSN=&&XK00E,                                             00011000
//             DISP=(NEW,PASS,DELETE),                                  00011100
//             DCB=(RECFM=FB,LRECL=206,BLKSIZE=6180),                   00011200
//             SPACE=(TRK,(15,15)),                                     00011300
//             UNIT=VIO                                                 00011400
//FAPXFRCE  DD DUMMY,DCB=BLKSIZE=206
//SYSIN     DD *
 000001 ISISDICT
//*============================================================
//* SETS ZEKE VARIABLE TO "STOP". WATCHDOG FOR "WRAPPING-UP"
//* THE CHECKWRITE PROCESS AND RUNNING BANKFILE JOB
//*============================================================
//SETVAR   EXEC PGM=ZEKESET,COND=((9,LT),(5,EQ),(6,EQ),(7,EQ))
//SYSPRINT DD SYSOUT=*
//SYSIN    DD *
  SET VAR $APDTARE EQ 'STOP'
/*
//*====================================================                 00011700
//*       SORT FAPXK00E EXTRACT FILE                                    00011800
//*====================================================                 00011900
//STEP04   EXEC PGM=SORT,COND=(4,EQ,STEP03)                             00012000
//SYSOUT    DD SYSOUT=*                                                 00012100
//SORTIN    DD DSN=&&XK00E,                                             00012200
//             DISP=(OLD,DELETE)                                        00012300
//SORTOUT   DD DSN=FISP.FILE.XK00E.TARE,                                00012400
//             DISP=(NEW,CATLG,DELETE),                                 00012500
//             DCB=(RECFM=FB,LRECL=206,BLKSIZE=6180),                   00012600
//             SPACE=(TRK,(15,15)),                                     00012700
//             UNIT=SYSDA                                               00012800
//SORTWK01  DD SPACE=(TRK,(150,150)),                                   00012900
//             UNIT=SYSDA                                               00013000
//SORTWK02  DD SPACE=(TRK,(150,150)),                                   00013100
//             UNIT=SYSDA                                               00013200
//SORTWK03  DD SPACE=(TRK,(150,150)),                                   00013300
//             UNIT=SYSDA                                               00013400
//SORTWK04  DD SPACE=(TRK,(150,150)),                                   00013500
//             UNIT=SYSDA                                               00013600
//SYSIN     DD *                                                        00013700
   SORT FIELDS=(1,56,CH,A)
/*                                                                      00013800
//*====================================================                 00013900
//*       REQUEST GENERATOR DRIVER                                      00014000
//*====================================================                 00014100
//STEP05   EXEC PGM=FAPUK01,COND=(4,EQ,STEP03)                          00014200
//STEPLIB   DD DSN=FISP.FIS.LOADLIB,DISP=SHR
//          DD DSN=DB2P.DCA.LOAD,DISP=SHR
//          DD DSN=DB2F.DSNEXIT,DISP=SHR
//          DD DSN=DB2F.DSNLOAD,DISP=SHR
//SYSPRINT DD  SYSOUT=*
//SYSTSPRT DD  SYSOUT=*
//SYSTSIN  DD  *
 DSN SYSTEM(DB2F)
 RUN PROGRAM(FAPUK01) PLAN(FAPUK01)
/*
//SYSOUT    DD SYSOUT=*                                                 00015100
//SYSLST    DD SYSOUT=*                                                 00015200
//CONTROLR  DD DSN=FISP.APDTARE.FAPUK01.CR.D$APDAT..T$FTIME,            00015300
//             DISP=(NEW,CATLG,KEEP),                                   00015400
//             DCB=(RECFM=FBA,LRECL=133,BLKSIZE=23408),                 00015500
//             SPACE=(TRK,(2,2),RLSE),                                  00015600
//             UNIT=SYSDA                                               00015700
//SYSUDUMP  DD SYSOUT=D,                                                00015800
//             DEST=LOCAL                                               00015900
//SYSDBOUT  DD SYSOUT=*                                                 00016000
//RUNPARMS  DD DSN=FISP.FILE.CHECKS.RUNPARMS,                           00016100
//             DISP=SHR                                                 00016200
//FAPXK00E  DD DSN=FISP.FILE.XK00E.TARE,                                00016300
//             DISP=SHR                                                 00016400
//SYSIN     DD *
 000001 ISISDICT
//*====================================================                 00016700
//*       REQUEST SERVER                                                00016800
//*====================================================                 00016900
//STEP06   EXEC PGM=FAPUK02,COND=(4,EQ,STEP03)                          00017000
//STEPLIB   DD DSN=FISP.FIS.LOADLIB,DISP=SHR
//          DD DSN=DB2P.DCA.LOAD,DISP=SHR
//          DD DSN=DB2F.DSNEXIT,DISP=SHR
//          DD DSN=DB2F.DSNLOAD,DISP=SHR
//SYSPRINT DD  SYSOUT=*
//SYSTSPRT DD  SYSOUT=*
//SYSTSIN  DD  *
 DSN SYSTEM(DB2F)
 RUN PROGRAM(FAPUK02) PLAN(FAPUK02)
/*
//SYSOUT    DD SYSOUT=*                                                 00017900
//SYSLST    DD SYSOUT=*                                                 00018000
//CONTROLR  DD DSN=FISP.APDTARE.FAPUK02.CR.D$APDAT..T$FTIME,            00018100
//*CONTROLR  DD DSN=FISP.APDTARE.FAPUK02.CR.D090596.T233001,            00018100
//             DISP=(NEW,CATLG,KEEP),                                   00018200
//             DCB=(RECFM=FBA,LRECL=133,BLKSIZE=23408),                 00018300
//             SPACE=(TRK,(2,2),RLSE),                                  00018400
//             UNIT=SYSDA                                               00018500
//SYSUDUMP  DD SYSOUT=D,                                                00018600
//             DEST=LOCAL                                               00018700
//SYSDBOUT  DD SYSOUT=*                                                 00018800
//RUNPARMS  DD DSN=FISP.FILE.CHECKS.RUNPARMS,                           00018900
//             DISP=SHR                                                 00019000
//SARX400   DD DUMMY                                                    00019100
//XADCTXT   DD DUMMY                                                    00019100
//FAPUK02E  DD DSN=FISP.TEMP.UK02E.TARE,                                00019200
//             DISP=(NEW,CATLG,DELETE),                                 00019300
//             DCB=(RECFM=FB,LRECL=344,BLKSIZE=23392),                  00019400
//             SPACE=(TRK,(15,15),RLSE),                                00019500
//             UNIT=SYSALLDA,                                           00019600
//             VOL=SER=APC003                                           00019700
//SYSIN     DD *
 000001 ISISDICT
//*====================================================                 00020000
//*       SORT FAPUK02E EXTRACT FILE                                    00020100
//*====================================================                 00020200
//STEP07   EXEC PGM=SORT,COND=(4,EQ,STEP03)                             00020300
//SYSOUT    DD SYSOUT=*                                                 00020400
//SORTIN    DD DSN=FISP.TEMP.UK02E.TARE,                                00020500
//             DISP=(OLD,DELETE)                                        00020600
//SORTOUT   DD DSN=FISP.FILE.UK02E.TARE,                                00020700
//             DISP=(NEW,CATLG,DELETE),                                 00020800
//             DCB=(RECFM=FB,LRECL=344,BLKSIZE=23392),                  00020900
//             SPACE=(TRK,(15,15),RLSE),                                00021000
//             UNIT=SYSDA                                               00021100
//SORTWK01  DD SPACE=(TRK,(150,150)),                                   00021200
//             UNIT=SYSDA                                               00021300
//SORTWK02  DD SPACE=(TRK,(150,150)),                                   00021400
//             UNIT=SYSDA                                               00021500
//SORTWK03  DD SPACE=(TRK,(150,150)),                                   00021600
//             UNIT=SYSDA                                               00021700
//SORTWK04  DD SPACE=(TRK,(150,150)),                                   00021800
//             UNIT=SYSDA                                               00021900
//SYSIN     DD *                                                        00022000
   SORT FIELDS=(1,75,CH,A,76,1,CH,D)
/*                                                                      00022100
//*====================================================                 00022200
//*             CHECK NUMBER ASSIGNOR                                   00022300
//*====================================================                 00022400
//STEP08   EXEC PGM=FAPCK03,COND=(4,EQ,STEP03)                          00022500
//STEPLIB   DD DSN=FISP.FIS.LOADLIB,DISP=SHR
//          DD DSN=DB2P.DCA.LOAD,DISP=SHR
//          DD DSN=DB2F.DSNEXIT,DISP=SHR
//          DD DSN=DB2F.DSNLOAD,DISP=SHR
//SYSPRINT DD  SYSOUT=*
//SYSTSPRT DD  SYSOUT=*
//SYSTSIN  DD  *
 DSN SYSTEM(DB2F)
 RUN PROGRAM(FAPCK03) PLAN(FAPCK03)
/*
//SYSOUT    DD SYSOUT=*                                                 00023400
//SYSLST    DD SYSOUT=*                                                 00023500
//CONTROLR  DD DSN=FISP.APDTARE.FAPCK03.CR.D$APDAT..T$FTIME,            00023600
//             DISP=(NEW,CATLG,KEEP),                                   00023700
//             DCB=(RECFM=FBA,LRECL=133,BLKSIZE=23408),                 00023800
//             SPACE=(TRK,(2,2),RLSE),                                  00023900
//             UNIT=SYSDA                                               00024000
//SYSUDUMP  DD SYSOUT=D,                                                00024100
//             DEST=LOCAL                                               00024200
//SYSDBOUT  DD SYSOUT=*                                                 00024300
//RUNPARMS  DD DSN=FISP.FILE.CHECKS.RUNPARMS,                           00024400
//             DISP=SHR                                                 00024500
//RESTART   DD DUMMY                                                    00024600
//FAPUK02E  DD DSN=FISP.FILE.UK02E.TARE,                                00024700
//             DISP=SHR                                                 00024800
//FAPCK03O  DD DSN=&&CK03O,                                             00024900
//             DISP=(NEW,PASS),                                         00025000
//             DCB=(RECFM=FB,LRECL=408,BLKSIZE=27744),                  00025100
//             SPACE=(TRK,(15,15),RLSE),                                00025200
//             UNIT=VIO                                                 00025300
//FAPDK04O  DD DUMMY                                                    00025400
//SYSIN     DD *
 000001 ISISDICT
//*====================================================                 00025700
//*       SORT FAPCK030 FILE                                            00025800
//*====================================================                 00025900
//STEP09   EXEC PGM=SORT,COND=(4,EQ,STEP03)                             00026000
//SYSOUT    DD SYSOUT=*                                                 00026100
//SORTIN    DD DSN=&&CK03O,                                             00026200
//             DISP=(OLD,DELETE)                                        00026300
//SORTOUT   DD DSN=FISP.FILE.CK03O.TARE,                                00026400
//             DISP=(NEW,CATLG,DELETE),                                 00026500
//             DCB=(RECFM=FB,LRECL=408,BLKSIZE=27744),                  00026600
//             SPACE=(TRK,(15,15),RLSE),                                00026700
//             UNIT=SYSDA                                               00026800
//SORTWK01  DD SPACE=(TRK,(150,150)),                                   00026900
//             UNIT=SYSDA                                               00027000
//SORTWK02  DD SPACE=(TRK,(150,150)),                                   00027100
//             UNIT=SYSDA                                               00027200
//SORTWK03  DD SPACE=(TRK,(150,150)),                                   00027300
//             UNIT=SYSDA                                               00027400
//SORTWK04  DD SPACE=(TRK,(150,150)),                                   00027500
//             UNIT=SYSDA                                               00027600
//SYSIN     DD *                                                        00027700
   SORT FIELDS=(1,76,CH,A)
/*                                                                      00027800
//*====================================================                 00027900
//*       CHECK PRINT DRIVER                                            00028000
//*====================================================                 00028100
//STEP10   EXEC PGM=FAPDK04,COND=(4,EQ,STEP03)                          00028200
//STEPLIB   DD DSN=FISP.FIS.LOADLIB,DISP=SHR
//          DD DSN=DB2P.DCA.LOAD,DISP=SHR
//          DD DSN=DB2F.DSNEXIT,DISP=SHR
//          DD DSN=DB2F.DSNLOAD,DISP=SHR
//SYSPRINT DD  SYSOUT=*
//SYSTSPRT DD  SYSOUT=*
//SYSTSIN  DD  *
 DSN SYSTEM(DB2F)
 RUN PROGRAM(FAPDK04) PLAN(FAPDK04)
/*
//SYSOUT    DD SYSOUT=*                                                 00029100
//SYSLST    DD SYSOUT=*                                                 00029200
//CONTROLR  DD DSN=FISP.APDTARE.FAPDK04.CR.D$APDAT..T$FTIME,            00029300
//             DISP=(NEW,CATLG,KEEP),                                   00029400
//             DCB=(RECFM=FBA,LRECL=133,BLKSIZE=23408),                 00029500
//             SPACE=(TRK,(2,2),RLSE),                                  00029600
//             UNIT=SYSDA                                               00029700
//SYSUDUMP  DD SYSOUT=D,                                                00029800
//             DEST=LOCAL                                               00029900
//SYSDBOUT  DD SYSOUT=*                                                 00030000
//*CHECKS    DD SYSOUT=L,                                               00030100
//*             OUTPUT=*.OUTSPEC                                        00030200
//SARX400   DD DUMMY
//CHECKS    DD DSN=FISP.APPRINT.TARE,                                   00030300
//             DISP=(NEW,CATLG,DELETE),                                 00030400
//             DCB=(RECFM=FBA,LRECL=133,BLKSIZE=23408),                 00030500
//             SPACE=(TRK,(150,150),RLSE),                              00030600
//             UNIT=SYSDA                                               00030700
//RUNPARMS  DD DSN=FISP.FILE.CHECKS.RUNPARMS,                           00030800
//             DISP=SHR                                                 00030900
//RESTART   DD DUMMY,                                                   00031000
//             DCB=BLKSIZE=80                                           00031100
//FAPCK03O  DD DSN=FISP.FILE.CK03O.TARE,                                00031200
//             DISP=SHR                                                 00031300
//FAPDK04O  DD DSN=&&DK04O,                                             00031400
//             DISP=(NEW,PASS),                                         00031500
//             DCB=(RECFM=FB,LRECL=414,BLKSIZE=23184),                  00031600
//             SPACE=(TRK,(15,15),RLSE),                                00031700
//             UNIT=VIO                                                 00031800
//SYSIN     DD *
 000001 ISISDICT
//*====================================================                 00027900
//*       CHECK PRINT DRIVER C-SERIES                                   00028000
//*====================================================                 00028100
//STEP10B  EXEC PGM=FAPDK04C,COND=(4,EQ,STEP03)                         00028200
//STEPLIB   DD DSN=FISP.FIS.LOADLIB,DISP=SHR
//          DD DSN=DB2P.DCA.LOAD,DISP=SHR
//          DD DSN=DB2F.DSNEXIT,DISP=SHR
//          DD DSN=DB2F.DSNLOAD,DISP=SHR
//SYSPRINT DD  SYSOUT=*
//SYSTSPRT DD  SYSOUT=*
//SYSTSIN  DD  *
 DSN SYSTEM(DB2F)
 RUN PROGRAM(FAPDK04C) PLAN(FAPDK04C)
/*
//SYSOUT    DD SYSOUT=*                                                 00029100
//SYSLST    DD SYSOUT=*                                                 00029200
//CONTROLR  DD DSN=FISP.APDTARE.FAPDK04.CRN.D$APDAT..T$FTIME,           00029300
//             DISP=(NEW,CATLG,KEEP),                                   00029400
//             DCB=(RECFM=FBA,LRECL=133,BLKSIZE=23408),                 00029500
//             SPACE=(TRK,(2,2),RLSE),                                  00029600
//             UNIT=SYSDA                                               00029700
//SYSUDUMP  DD SYSOUT=D,                                                00029800
//             DEST=LOCAL                                               00029900
//SYSDBOUT  DD SYSOUT=*                                                 00030000
//*CHECKS    DD SYSOUT=L,                                               00030100
//*             OUTPUT=*.OUTSPEC                                        00030200
//SARX400   DD DUMMY
//CHECKS    DD DSN=FISP.APPRINT.TARE.NEW,                               00030300
//             DISP=(NEW,CATLG,DELETE),                                 00030400
//             DCB=(RECFM=FBA,LRECL=133,BLKSIZE=23408),                 00030500
//             SPACE=(TRK,(150,150),RLSE),                              00030600
//             UNIT=SYSDA                                               00030700
//RUNPARMS  DD DSN=FISP.FILE.CHECKS.RUNPARMS,                           00030800
//             DISP=SHR                                                 00030900
//RESTART   DD DUMMY,                                                   00031000
//             DCB=BLKSIZE=80                                           00031100
//FAPCK03O  DD DSN=FISP.FILE.CK03O.TARE,                                00031200
//             DISP=SHR                                                 00031300
//FAPDK04O  DD DSN=&&DK04ON,                                            00031400
//             DISP=(NEW,PASS),                                         00031500
//             DCB=(RECFM=FB,LRECL=414,BLKSIZE=23184),                  00031600
//             SPACE=(TRK,(15,15),RLSE),                                00031700
//             UNIT=VIO                                                 00031800
//SYSIN     DD *
 000001 ISISDICT
//*====================================================                 00032100
//*            SORT FAPDK04O FILE                                       00032200
//*====================================================                 00032300
//STEP11   EXEC PGM=SORT,COND=(4,EQ,STEP03)                             00032400
//SYSOUT    DD SYSOUT=*                                                 00032500
//SORTIN    DD DSN=&&DK04O,                                             00032600
//             DISP=(OLD,PASS)                                          00032700
//SORTOUT   DD DSN=FISP.FILE.DK04O.TARE,                                00032800
//             DISP=(NEW,CATLG,DELETE),                                 00032900
//             DCB=(RECFM=FB,LRECL=414,BLKSIZE=23184),                  00033000
//             SPACE=(TRK,(15,15),RLSE),                                00033100
//             UNIT=SYSDA                                               00033200
//SORTWK01  DD SPACE=(TRK,(150,150)),                                   00033300
//             UNIT=SYSDA                                               00033400
//SORTWK02  DD SPACE=(TRK,(150,150)),                                   00033500
//             UNIT=SYSDA                                               00033600
//SORTWK03  DD SPACE=(TRK,(150,150)),                                   00033700
//             UNIT=SYSDA                                               00033800
//SORTWK04  DD SPACE=(TRK,(150,150)),                                   00033900
//             UNIT=SYSDA                                               00034000
//SYSIN     DD *                                                        00034100
   SORT FIELDS=(1,43,CH,D)
/*                                                                      00034200
//*====================================================                 00032500
//* COPY FAPDK04O FILE INTO the GDG file for DW upload                  00032600
//*====================================================                 00032700
//*
//STEP11A  EXEC PGM=IEBGENER,COND=(4,EQ,STEP03)                         00032800
//*
//SYSUT1    DD DSN=FISP.FILE.DK04O.TARE,DISP=SHR                        00033200
//*
//SYSUT2    DD DSN=FISP.APCHKS.DK04O.DW.CHKS(+1),                       00033000
//             DISP=(NEW,CATLG),
//             DCB=(RECFM=FB,LRECL=414),
//             SPACE=(CYL,(2,2),RLSE),                                  00003300
//             UNIT=SYSALLDA
//*                                                                     00033300
//SYSPRINT  DD SYSOUT=*                                                 00032900
//SYSIN     DD DUMMY                                                    00033400
//*
//*====================================================                 00034300
//*            SORT FAPDK04O FILE FOR CONFIRMATION DOCUMENT             00034400
//*====================================================                 00034500
//STEP12   EXEC PGM=SORT,COND=(4,EQ,STEP03)                             00034600
//SYSOUT    DD SYSOUT=*                                                 00034700
//SORTIN    DD DSN=&&DK04O,                                             00034800
//             DISP=(OLD,DELETE)                                        00034900
//SORTOUT   DD DSN=FISP.FILE.DK04O.CONF.TARE,                           00035000
//             DISP=(NEW,CATLG,DELETE),                                 00035100
//             DCB=(RECFM=FB,LRECL=414,BLKSIZE=23184),                  00035200
//             SPACE=(TRK,(150,75),RLSE),                               00035300
//             UNIT=SYSALLDA,                                           00035400
//             VOL=SER=APC003                                           00035500
//SORTWK01  DD SPACE=(TRK,(150,150)),                                   00035600
//             UNIT=SYSDA                                               00035700
//SORTWK02  DD SPACE=(TRK,(150,150)),                                   00035800
//             UNIT=SYSDA                                               00035900
//SORTWK03  DD SPACE=(TRK,(150,150)),                                   00036000
//             UNIT=SYSDA                                               00036100
//SORTWK04  DD SPACE=(TRK,(150,150)),                                   00036200
//             UNIT=SYSDA                                               00036300
//SYSIN     DD *                                                        00036400
    INCLUDE COND=(23,1,CH,EQ,C'A')
    SORT FIELDS=(1,30,CH,A,31,8,CH,D,74,3,CH,A)
/*                                                                      00036500
//*====================================================                 00036600
//*       ACH PRINT                                                     00036700
//*====================================================                 00036800
//STEP13   EXEC PGM=UAPDK04B,COND=(4,EQ,STEP03)                         00036900
//STEPLIB   DD DSN=FISP.FIS.LOADLIB,DISP=SHR
//SYSOUT    DD SYSOUT=*                                                 00037800
//SYSLST    DD SYSOUT=*                                                 00037900
//CONTROLR  DD DSN=FISP.APDTARE.FAPDK04B.CR.D$APDAT..T$FTIME,           00038000
//             DISP=(NEW,CATLG,KEEP),                                   00038100
//             DCB=(RECFM=FBA,LRECL=133,BLKSIZE=23408),                 00038200
//             SPACE=(TRK,(2,2),RLSE),                                  00038300
//             UNIT=SYSDA                                               00038400
//SYSUDUMP  DD SYSOUT=D,                                                00038500
//             DEST=LOCAL                                               00038600
//SYSDBOUT  DD SYSOUT=*                                                 00038700
//RPTPARMS  DD *
*PRINT CONF NOTICE Y
*PRINT EMAIL N
//RESTART   DD DUMMY,                                                   00038800
//             DCB=BLKSIZE=80                                           00038900
//FAPDK04O  DD DSN=FISP.FILE.DK04O.CONF.TARE,                           00039000
//             DISP=SHR                                                 00039100
//REPORT01  DD SYSOUT=(,),                                              00039200
//             OUTPUT=(*.POST1,*.POST2)                                 00039300
/*
//*====================================================                 00110000
//*       ACH EMAIL SEND                                                00025500
//*====================================================                 00110000
//STEP14   EXEC PGM=UAPDK04C,COND=(4,EQ,STEP03)                         00025700
//STEPLIB   DD DSN=FISP.FIS.LOADLIB,DISP=SHR
//SYSOUT    DD SYSOUT=*                                                 00026700
//SYSLST    DD SYSOUT=*                                                 00026800
//CONTROLR  DD DSN=FISP.APDTARE.UAPDK04C.CR.D$APDAT..T$FTIME,           00650001
//             DISP=(NEW,CATLG,KEEP),                                   00670001
//             DCB=(RECFM=FBA,LRECL=133,BLKSIZE=23408),                 00680001
//             SPACE=(TRK,(2,2),RLSE),                                  00690001
//             UNIT=SYSDA                                               00700001
//SYSUDUMP  DD SYSOUT=D,                                                00026900
//             DEST=LOCAL                                               00027000
//SYSDBOUT  DD SYSOUT=*                                                 00027100
//FAPDK04O  DD DSN=FISP.FILE.DK04O.CONF.TARE,                           00028000
//             DISP=SHR                                                 00028100
//PARMIN    DD *
*COPY TO: emnotifi@ucsd.edu
*PRINT EMAIL Y
//REPORT01  DD DSN=FISP.FILE.DK04O.EMAIL.TARE,
//             DISP=(NEW,CATLG,KEEP),                                   00670001
//             DCB=(RECFM=FB,LRECL=81,BLKSIZE=27945),                   00680001
//             SPACE=(TRK,(2,2),RLSE),                                  00690001
//             UNIT=SYSDA                                               00700001
//REPORT02  DD DSN=FISP.FILE.DK04C.EMAIL.SENT,
//             DISP=MOD
/*
//*===================================================================  00003500
//*THIS STRIPS OFF THE FIRST CHARACTER (CARRIAGE CONTROL)               00003500
//*===================================================================  00003500
//STEP15   EXEC PGM=SYNCSORT,COND=(4,EQ,STEP03)                         00003600
//SYSOUT    DD SYSOUT=*                                                 00003700
//SORTIN    DD DSN=FISP.FILE.DK04O.EMAIL.TARE,                          00003900
//             DISP=SHR                                                 00004000
//SORTOUT   DD DSN=FISP.FILE.DK04C.EMAIL.TARE.D$APDAT,                  00004100
//             DISP=(NEW,CATLG,DELETE),                                 00004200
//             DCB=(RECFM=FBA,BLKSIZE=27920,LRECL=80),                  00004300
//             SPACE=(TRK,(2,2)),                                       00004400
//             UNIT=SYSDA                                               00004500
//SYSPRINT  DD SYSOUT=*                                                 00003800
//SORTWK01  DD UNIT=SYSDA,SPACE=(TRK,20)                                00004100
//SYSIN     DD *                                                        00004600
           SORT FIELDS=COPY
           OUTFIL OUTREC=(1:2,80)                                       00041100
/*                                                                      00004700
//*====================================================                 00039400
//*** END OF PHASE ONE OF THE CHECK RUN                                 00039500
//*** THIS SORTED FILE IS PASSED TO
//*** THE FIRST STEP IN CHECK RUN PHASE TWO                             00039600
//* PRINT CONFIRMATION DOCUMENTS REPORT                                 00039900
//*============================================================         00040000
//STEP30   EXEC PGM=IEBGENER,COND=(4,EQ,STEP03)                         00040100
//SYSPRINT  DD SYSOUT=*                                                 00040200
//SYSUDUMP  DD SYSOUT=D,                                                00040300
//             DEST=LOCAL                                               00040400
//SYSUT1    DD DSN=FISP.APDTARE.FAPDK04B.CR.D$APDAT..T$FTIME,           00040500
//             DISP=(OLD)                                               00040600
//SYSUT2    DD SYSOUT=(,),                                              00040700
//             OUTPUT=(*.OUT1,*.OUT2)                                   00040800
//SYSIN     DD DUMMY                                                    00040900
/*
//*============================================================         00041000
//* PRINT CHECK REQUEST REPORT                                          00041100
//*============================================================         00041200
//STEP40   EXEC PGM=IEBGENER,COND=(4,EQ,STEP03)                         00041300
//SYSPRINT  DD SYSOUT=*                                                 00041400
//SYSUDUMP  DD SYSOUT=D,                                                00041500
//             DEST=LOCAL                                               00041600
//SYSUT1    DD DSN=FISP.APDTARE.FAPXK00.CR.D$APDAT..T$FTIME,            00041700
//*SYSUT1    DD DSN=FISP.APDTARE.FAPXK00.CR.D090596.T233001,            00041700
//             DISP=(OLD)                                               00041800
//SYSUT2    DD SYSOUT=(,),                                              00041900
//             OUTPUT=(*.OUT1,*.OUT3)                                   00042000
//SYSIN     DD DUMMY                                                    00042100
/*
//*============================================================
//* PRINT CHECK REQUEST REPORT IF STEP03 ABENDS WITH CC=16
//*============================================================
//STEP40B  EXEC PGM=IEBGENER,COND=(16,NE,STEP03)
//SYSPRINT  DD SYSOUT=*
//SYSUDUMP  DD SYSOUT=D,
//             DEST=LOCAL
//SYSUT1    DD DSN=FISP.APDTARE.FAPXK00.CR.D$APDAT..T$FTIME,            00041700
//             DISP=(OLD)
//SYSUT2    DD SYSOUT=(,),
//             OUTPUT=(*.OUT1,*.OUT2,*.OUT3)
//SYSIN     DD DUMMY
/*
//*============================================================         00042500
//* SUBMIT ACH MAIL JOB IF ACH ACTIVITY WAS GENERATED
//*============================================================         00042500
//ADDMAIL  EXEC PGM=ZEKESET,COND=(4,EQ,STEP03)
//SYSPRINT  DD SYSOUT=*                                                 00000500
//SYSIN     DD *                                                        00000600
  SET SCOM 'ZADD EV 2626 REBUILD'                                       00006**2
/*                                                                      00000700
//*============================================================
//* SUBMIT UPDTTARE (EV 3074)
//*============================================================
//STEP77   EXEC PGM=ZEKESET,COND=(4,EQ,STEP03)
//SYSPRINT DD   SYSOUT=*
//SYSIN  DD   *
   SET SCOM 'ZADD EV 3074 REBUILD'
/*
//*                                                                     00000700
//*============================================================         00000700
//* THE FOLLOWING STEP WILL SET CC 223 IF ANY OF THE JOB STEPS          00000700
//* ABEND OR SET AN 'UNACCEPTABLE' CONDITION CODE.                      00000700
//*============================================================         00000700
//STOPZEKE EXEC STOPZEKE                                                00000700
//*                                                                     00000700
//*================ E N D  O F  J C L  APDTARE  ========                00042800
