//APDXMGV JOB (SYS000),'PRDCTL',MSGCLASS=F,MSGLEVEL=(1,1),              00000100
//*====================================================                 00000200
//*       RESTART=STEP10,                                               00000300
//*====================================================                 00000400
//        REGION=0M,NOTIFY=APCPSB,CLASS=K                               00000600
//*====================================================                 00000700
//*====================================================                 00000700
//*  YOU ** MUST ** SUBMIT THIS JOB THRU ZEKE !                         00000800
//*++++++++++++++++++++++++++                                           00000900
//*    ZEKE EVENT # 228                                                 00001000
//*++++++++++++++++++++++++++                                           00001100
//*====================================================                 00001200
//* If ABENDS in STEP06 - RESTART in STEP06
//*====================================================                 00000700
//* STEP14  CONTAIN CASE-SENSITIVE CODE,                                00000600
//*    DO NOT CHANGE ANY LOWERCASE TO UPPERCASE                         00000600
//*====================================================                 00000600
//*OUTSPEC OUTPUT LINECT=66,FORMS=IFIS                                  00001300
/*JOBPARM LINECT=0
//OUT1 OUTPUT CLASS=G,FORMS=A002,DEST=LOCAL,GROUPID=XMGVCHKS            00001400
//OUT2 OUTPUT CLASS=4,FORMS=A002,DEST=LOCAL,GROUPID=BACKUP1             00001500
//OUT3 OUTPUT CLASS=3,FORMS=A002,DEST=LOCAL,GROUPID=BACKUP1             00001500
//POST1 OUTPUT CLASS=S,FORMS=P075,DEST=LOCAL,GROUPID=XMGVCONF           00001600
//POST2 OUTPUT CLASS=2,FORMS=P075,DEST=LOCAL,GROUPID=BACKUP2            00001700
//* (OUT2 CHANGED FROM 'G' TO '4' FOR PRINT REDUCTION PROJECT ONLY)
//* (OUT3 CHANGED FROM 'G' TO '3' FOR PRINT REDUCTION PROJECT ONLY)
//* (POST2 CHANGED FROM 'G' TO '2' FOR PRINT REDUCTION PROJECT ONLY)
//*====================================================                 00001800
//* CHECK THE STATUS OF THE ORIGIN, CAN ONLY RUN THIS JOB
//* IF THE ORIGIN STATUS IS 'INACTIVE'
//*
//* STATUS OF 'STOP' OR 'GO' WILL ABEND IN STEP00A WITH
//* A RETURN CODE OF 16
//*====================================================                 00001800
//STEP00   EXEC PGM=IEBGENER
//SYSPRINT DD SYSOUT=Z
//SYSUT1 DD *
      APDXMGV = ** $APDXMGV **
/*
//SYSUT2  DD DSN=FISP.CHKWRITE.STATUS,
//           DISP=SHR
//SYSIN DD DUMMY
/*
//*============================================================
//STEP00A  EXEC PGM=UAPSTCHK
//STEPLIB   DD DSN=FISP.FIS.LOADLIB,DISP=SHR
//STATUS01  DD DSN=FISP.CHKWRITE.STATUS,DISP=SHR
//SYSOUT    DD SYSOUT=*
//SYSUDUMP  DD SYSOUT=*
//*
//*====================================================                 00001100
//*        DELETE SORTED ADDRESS FILE
//*====================================================                 00001100
//STEP00B  EXEC PGM=IEFBR14                                             00004700
//DD1       DD DSN=FISP.XMGV.ADDRESS.SORT,                              00004800
//             DISP=(MOD,DELETE,DELETE),                                00004900
//             DCB=(RECFM=FB,LRECL=300,BLKSIZE=27900),                  00005000
//             SPACE=(TRK,(15,15),RLSE),                                00005100
//             UNIT=SYSALLDA                                            00005200
//*====================================================                 00001100
//*        SORT INPUT ADDRESS FILE
//*====================================================                 00001100
//SORT00C  EXEC PGM=SORT
//SYSOUT    DD SYSOUT=*
//SORTIN    DD DSN=FISP.XMGV.APCHECKS.ADDRESS.INPUT,
//             DISP=SHR
//SORTOUT   DD DSN=FISP.XMGV.ADDRESS.SORT,
//             DISP=(NEW,CATLG,DELETE),
//             DCB=(RECFM=FB,LRECL=300,BLKSIZE=27900),
//             SPACE=(TRK,(15,15),RLSE),
//             UNIT=SYSALLDA
//SORTWK01  DD SPACE=(TRK,(300,150)),
//             UNIT=SYSDA
//SORTWK02  DD SPACE=(TRK,(300,150)),
//             UNIT=SYSDA
//SORTWK03  DD SPACE=(TRK,(300,150)),
//             UNIT=SYSDA
//SORTWK04  DD SPACE=(TRK,(300,150)),
//             UNIT=SYSDA
//SYSIN     DD *
   SORT FIELDS=(1,10,CH,A)
   SUM FIELDS=NONE

//*====================================================                 00001100
//*  RUN IDCAMS PROGRAM         - DELETE OLD VSAM FILE OF IFIS        * 00001300
//*                               EXTERNAL REPORT CODES               * 00001400
//* VSAM KEY - FUND, ORG, START DATE, AND ACTI-CODE                   * 00001400
//*====================================================                 00001500
//IDCAM40  EXEC PGM=IDCAMS                                              00001600
//SYSPRINT  DD SYSOUT=*                                                 00001700
//SYSIN     DD *                                                        00001800
           DELETE -
                  FISP.XMGV.ADDRESS.VSAM
           DEFINE -
           CLUSTER (NAME (FISP.XMGV.ADDRESS.VSAM) -
                  FREESPACE (0 0) -
                  CISZ (4096) -
                  INDEXED -
                  REUSE -
                  KEYS (12,0) -
                  RECORDSIZE (300,300) -
                  VOLUME (APC002)) -
           DATA -
                  (NAME(FISP.XMGV.ADDRESS.VSAM.DATA) -
                  TRACKS (10,2)) -
           INDEX -
                  (NAME(FISP.XMGV.ADDRESS.VSAM.INDEX1))
/*                                                                      00001900
//*=====================================================================00002000
//*   REPOR THE SORTED EXTRACT FILE TO VSAM FILE                        00002100
//*=====================================================================00002200
/*                                                                      00002300
//REPRO50  EXEC PGM=IDCAMS,COND=((9,LT),(5,EQ),(6,EQ),(7,EQ))           00002400
//SYSPRINT  DD SYSOUT=*                                                 00002500
//SYSIN     DD *                                                        00002600
     REPRO -
       INDATASET (FISP.XMGV.ADDRESS.SORT) -
       OUTDATASET (FISP.XMGV.ADDRESS.VSAM) -
       REUSE;
/*                                                                      00002700
//*============================================================
//STEP01   EXEC PGM=FAPTK00,COND=((9,LT),(5,EQ),(6,EQ),(7,EQ))          00001900
//STEPLIB   DD DSN=FISP.FIS.LOADLIB,DISP=SHR
//          DD DSN=DB2P.DCA.LOAD,DISP=SHR
//          DD DSN=DB2F.DSNEXIT,DISP=SHR
//          DD DSN=DB2F.DSNLOAD,DISP=SHR
//SYSPRINT DD  SYSOUT=*
//SYSTSPRT DD  SYSOUT=*
//SYSTSIN  DD  *
 DSN SYSTEM(DB2F)
 RUN PROGRAM(FAPTK00) PLAN(FAPTK00)
/*
//SYSOUT    DD SYSOUT=*                                                 00002800
//SYSLST    DD SYSOUT=*                                                 00002900
//CONTROLR  DD DSN=FISP.APDXMGV.FAPTK00.CR.D$APDAT..T$FTIME,            00003000
//             DISP=(NEW,CATLG,KEEP),                                   00003100
//             DCB=(RECFM=FBA,LRECL=133,BLKSIZE=23408),                 00003200
//             SPACE=(TRK,(2,2),RLSE),                                  00003300
//             UNIT=SYSDA                                               00003400
//SYSUDUMP  DD SYSOUT=D,                                                00003500
//             DEST=LOCAL                                               00003600
//SYSDBOUT  DD SYSOUT=*                                                 00003700
//CARDFILE  DD *                                                        00003800
01 APCPRD   XMGV 01 $APY.$APD            0025
/*                                                                      00003900
//RUNPARMS  DD DSN=FISP.FILE.CHECKS.RUNPARMS,                           00004000
//             DISP=SHR                                                 00004100
//SYSIN     DD *
 000001 ISISDICT
//*============================================================
//* FIRST CONTROL LINE BELOW IS FOR FISCAL CLOSING PURPOSES
//* **USUALLY FROM JUNE 30 - JULY 14**
//* RESULTS ARE POSTED INTO PRELIMINARY LEDGER
//* (REPLACE CONTROL CARD ABOVE WITH FIRST CONTROL CARD BELOW
//* UNTIL AFTER CLOSING OF PRELIMINARY LEDGER PERIOD FOR DISBURSEMENTS)
//* (YEAR VALUE MUST BE CHANGED!)
//* (OFFSET OF '0025' IS INTENTIONAL DUE TO TRANSLATION DIFFERENCE
//*  IN SPACING OF ZEKE VARIABLES AND HARDCODED DATE)
//*
//*01 APCPRD   XMGV 01 20140630            0025
//*01 APCPRD   XMGV 01 $APY.$APD            0025
//*===========================================================          00004400
//*       DELETE CATALOGED FILES                                        00004500
//*====================================================                 00004600
//STEP02   EXEC PGM=IEFBR14,COND=((9,LT),(5,EQ),(6,EQ),(7,EQ))          00004700
//DD1       DD DSN=FISP.FILE.XK00E.XMGV,                                00004800
//             DISP=(MOD,DELETE,DELETE),                                00004900
//             DCB=(RECFM=FB,LRECL=206,BLKSIZE=6180),                   00005000
//             SPACE=(TRK,(15,75),RLSE),                                00005100
//             UNIT=SYSDA                                               00005200
//DD2       DD DSN=FISP.TEMP.UK02E.XMGV,                                00005300
//             DISP=(MOD,DELETE,DELETE),                                00005400
//             DCB=(RECFM=FB,LRECL=344,BLKSIZE=23392),                  00005500
//             SPACE=(TRK,(15,75),RLSE),                                00005600
//             UNIT=SYSDA                                               00005700
//DD3       DD DSN=FISP.FILE.UK02E.XMGV,                                00005800
//             DISP=(MOD,DELETE,DELETE),                                00005900
//             DCB=(RECFM=FB,LRECL=344,BLKSIZE=23392),                  00006000
//             SPACE=(TRK,(15,75),RLSE),                                00006100
//             UNIT=SYSDA                                               00006200
//DD4       DD DSN=FISP.FILE.CK03O.XMGV,                                00006300
//             DISP=(MOD,DELETE,DELETE),                                00006400
//             DCB=(RECFM=FB,LRECL=408,BLKSIZE=27744),                  00006500
//             SPACE=(TRK,(15,75),RLSE),                                00006600
//             UNIT=SYSDA                                               00006700
//DD5       DD DSN=FISP.FILE.DK04O.XMGV,                                00006800
//             DISP=(MOD,DELETE,DELETE),                                00006900
//             DCB=(RECFM=FB,LRECL=414,BLKSIZE=23184),                  00007000
//             SPACE=(TRK,(15,75),RLSE),                                00007100
//             UNIT=SYSDA                                               00007200
//DD6       DD DSN=FISP.FILE.DK04O.CONF.XMGV,                           00007300
//             DISP=(MOD,DELETE,DELETE),                                00007400
//             DCB=(RECFM=FB,LRECL=414,BLKSIZE=23184),                  00007500
//             SPACE=(TRK,(15,75),RLSE),                                00007600
//             UNIT=SYSDA                                               00007700
//DD7       DD DSN=FISP.FILE.DK04O.EMAIL.XMGV,
//             DISP=(MOD,DELETE,DELETE),                                00670001
//             DCB=(RECFM=FB,LRECL=81,BLKSIZE=27945),                   00680001
//             SPACE=(TRK,(2,2),RLSE),                                  00690001
//             UNIT=SYSDA                                               00700001
//DD8       DD DSN=FISP.FILE.DK04C.EMAIL.XMGV,                          00004100
//             DISP=(MOD,DELETE,DELETE),                                00670001
//             DCB=(RECFM=FBA,BLKSIZE=27920,LRECL=80),                  00004300
//             SPACE=(TRK,(2,2)),                                       00004400
//             UNIT=SYSDA                                               00004500
//DD9       DD DSN=FISP.FILE.UAPUK00.XMGV,
//             DISP=(MOD,DELETE,DELETE),
//             DCB=(RECFM=FB,LRECL=206,BLKSIZE=6180),
//             SPACE=(TRK,(15,75),RLSE),
//             UNIT=SYSDA
//FAPPRINT  DD DSN=FISP.APPRINT.XMGV,                                   00007800
//             DISP=(MOD,DELETE,DELETE),                                00007900
//             DCB=(RECFM=FBA,LRECL=133,BLKSIZE=23408),                 00008000
//             SPACE=(TRK,(150,150),RLSE),                              00008100
//             UNIT=SYSDA                                               00008200
//FAPPRNTN  DD DSN=FISP.APPRINT.XMGV.NEW,                               00007800
//             DISP=(MOD,DELETE,DELETE),                                00007900
//             DCB=(RECFM=FBA,LRECL=133,BLKSIZE=23408),                 00008000
//             SPACE=(TRK,(150,150),RLSE),                              00008100
//             UNIT=SYSDA                                               00008200
//*====================================================
//*     THIS REPLACES THE INCOMING 10-DIGIT REQUESTOR ID
//*     WITH A NEXT-UP NUMBER STARTING WITH 'M' FOLLOWED
//*     BY 8 DIGITS.
//*====================================================
//STEP2A   EXEC PGM=UAPUK00
//STEPLIB   DD DSN=FISP.FIS.LOADLIB,DISP=SHR
//          DD DSN=DB2P.DCA.LOAD,DISP=SHR
//          DD DSN=DB2F.DSNEXIT,DISP=SHR
//          DD DSN=DB2F.DSNLOAD,DISP=SHR
//SYSOUT    DD SYSOUT=*
//SYSPRINT  DD SYSOUT=*
//SYSTSPRT  DD SYSOUT=*
//SYSTSIN   DD *
 DSN SYSTEM(DB2F)
 RUN PROGRAM(UAPUK00) PLAN(UAPUK00)
/*
//CONTROLR  DD SYSOUT=*
//SYSLST    DD SYSOUT=*
//SYSUDUMP  DD SYSOUT=*
//SYSDBOUT  DD SYSOUT=*
//EXTIFILE  DD DSN=FISP.XMGV.APCHECKS.INPUT,
//             DISP=SHR
//MODIFILE  DD DSN=FISP.FILE.UAPUK00.XMGV,
//             DISP=(NEW,CATLG,DELETE),
//             DCB=(RECFM=FB,LRECL=206,BLKSIZE=6180),
//             SPACE=(TRK,(15,75),RLSE),
//             UNIT=SYSALLDA
//SARX400   DD DSN=FISP.XMGV.ADDRESS.VSAM,DISP=SHR
//SYSIN     DD *
 000001 ISISDICT
/*
//*====================================================                 00008300
//*       EXTRACT DRIVER                                                00008400
//*          EXTRACT RECORDS FROM R4053-R4150-R4151-R4152 AND           00008500
//*          CREATE FAPXK00E FILE                                       00008600
//*====================================================                 00008700
//STEP03   EXEC PGM=FAPXK00,COND=((9,LT),(5,EQ),(6,EQ),(7,EQ))          00008800
//STEPLIB   DD DSN=FISP.FIS.LOADLIB,DISP=SHR
//          DD DSN=DB2P.DCA.LOAD,DISP=SHR
//          DD DSN=DB2F.DSNEXIT,DISP=SHR
//          DD DSN=DB2F.DSNLOAD,DISP=SHR
//SYSPRINT DD  SYSOUT=*
//SYSTSPRT DD  SYSOUT=*
//SYSTSIN  DD  *
 DSN SYSTEM(DB2F)
 RUN PROGRAM(FAPXK00) PLAN(FAPXK00)
/*
//CONTROLR  DD DSN=FISP.APDXMGV.FAPXK00.CR.D$APDAT..T$FTIME,            00009700
//             DISP=(NEW,CATLG,KEEP),                                   00009800
//             DCB=(RECFM=FBA,LRECL=133,BLKSIZE=23408),                 00009900
//             SPACE=(TRK,(2,2),RLSE),                                  00010000
//             UNIT=SYSDA                                               00010100
//SYSOUT    DD SYSOUT=*                                                 00010200
//SYSLST    DD SYSOUT=*                                                 00010300
//SYSUDUMP  DD SYSOUT=D,                                                00010400
//             DEST=LOCAL                                               00010500
//SYSDBOUT  DD SYSOUT=*                                                 00010600
//RUNPARMS  DD DSN=FISP.FILE.CHECKS.RUNPARMS,                           00010700
//             DISP=SHR                                                 00010800
//EXTIFILE  DD DSN=FISP.FILE.UAPUK00.XMGV,                              00010900
//             DISP=SHR                                                 00011000
//FAPXK00E  DD DSN=&&XK00E,                                             00011100
//             DISP=(NEW,PASS,DELETE),                                  00011200
//             DCB=(RECFM=FB,LRECL=206,BLKSIZE=6180),                   00011300
//             SPACE=(TRK,(15,75),RLSE),                                00011400
//             UNIT=VIO                                                 00011500
//FAPXFRCE  DD DUMMY,DCB=BLKSIZE=206
//SYSIN     DD *
 000001 ISISDICT
/*
//*====================================================                 00011800
//*       SORT FAPXK00E EXTRACT FILE                                    00011900
//*====================================================                 00012000
//STEP04   EXEC PGM=SORT,COND=(0,NE)                                    00012100
//SYSOUT    DD SYSOUT=*                                                 00012200
//SORTIN    DD DSN=&&XK00E,                                             00012300
//             DISP=(OLD,DELETE)                                        00012400
//SORTOUT   DD DSN=FISP.FILE.XK00E.XMGV,                                00012500
//             DISP=(NEW,CATLG,DELETE),                                 00012600
//             DCB=(RECFM=FB,LRECL=206,BLKSIZE=6180),                   00012700
//             SPACE=(TRK,(15,75),RLSE),                                00012800
//             UNIT=SYSALLDA,                                           00012900
//             VOL=SER=APC003                                           00013000
//SORTWK01  DD SPACE=(TRK,(150,150)),                                   00013100
//             UNIT=SYSDA                                               00013200
//SORTWK02  DD SPACE=(TRK,(150,150)),                                   00013300
//             UNIT=SYSDA                                               00013400
//SORTWK03  DD SPACE=(TRK,(150,150)),                                   00013500
//             UNIT=SYSDA                                               00013600
//SORTWK04  DD SPACE=(TRK,(150,150)),                                   00013700
//             UNIT=SYSDA                                               00013800
//SYSIN     DD *                                                        00013900
   SORT FIELDS=(1,56,CH,A)
/*                                                                      00014000
//*====================================================
//*       CHECK FAPXK00E FOR DUPLICATES
//*====================================================
//STEP04A   EXEC PGM=UAPXK01
//STEPLIB   DD DSN=FISP.FIS.LOADLIB,DISP=SHR
//SYSOUT    DD SYSOUT=*
//FAPXK00E  DD DSN=FISP.FILE.XK00E.XMGV,
//             DISP=SHR
//CONTROLR  DD DSN=FISP.APDXMGV.UAPXK01.CR.D$BJDT..T$FTIME,
//             DISP=(NEW,CATLG,KEEP),
//             DCB=(RECFM=FBA,LRECL=133,BLKSIZE=23408),
//             SPACE=(TRK,(2,2),RLSE),
//             UNIT=SYSDA
/*
//*============================================================         00042500
//* SETS ZEKE VARIABLE TO "STOP". WATCHDOG FOR "WRAPPING-UP"
//* THE CHECKWRITE PROCESS AND RUNNING BANKFILE JOB
//*============================================================
//SETVAR   EXEC PGM=ZEKESET,COND=((9,LT),(5,EQ),(6,EQ),(7,EQ))
//SYSPRINT DD SYSOUT=*
//SYSIN    DD *
  SET VAR $APDXMGV EQ 'STOP'
/*
//*====================================================                 00014100
//*       REQUEST GENERATOR DRIVER                                      00014200
//*====================================================                 00014300
//STEP05   EXEC PGM=FAPUK01,COND=((9,LT),(5,EQ),(6,EQ),(7,EQ))          00014400
//STEPLIB   DD DSN=FISP.FIS.LOADLIB,DISP=SHR
//          DD DSN=DB2P.DCA.LOAD,DISP=SHR
//          DD DSN=DB2F.DSNEXIT,DISP=SHR
//          DD DSN=DB2F.DSNLOAD,DISP=SHR
//SYSPRINT DD  SYSOUT=*
//SYSTSPRT DD  SYSOUT=*
//SYSTSIN  DD  *
 DSN SYSTEM(DB2F)
 RUN PROGRAM(FAPUK01) PLAN(FAPUK01)
/*
//SYSOUT    DD SYSOUT=*                                                 00015300
//SYSLST    DD SYSOUT=*                                                 00015400
//CONTROLR  DD DSN=FISP.APDXMGV.FAPUK01.CR.D$APDAT..T$FTIME,            00015500
//             DISP=(NEW,CATLG,KEEP),                                   00015600
//             DCB=(RECFM=FBA,LRECL=133,BLKSIZE=23408),                 00015700
//             SPACE=(TRK,(2,2),RLSE),                                  00015800
//             UNIT=SYSDA                                               00015900
//SYSUDUMP  DD SYSOUT=D,                                                00016000
//             DEST=LOCAL                                               00016100
//SYSDBOUT  DD SYSOUT=*                                                 00016200
//RUNPARMS  DD DSN=FISP.FILE.CHECKS.RUNPARMS,                           00016300
//             DISP=SHR                                                 00016400
//FAPXK00E  DD DSN=FISP.FILE.XK00E.XMGV,                                00016500
//             DISP=SHR                                                 00016600
//SYSIN     DD *
 000001 ISISDICT
//*====================================================                 00016900
//*       REQUEST SERVER                                                00017000
//*====================================================                 00017100
//STEP06   EXEC PGM=FAPUK02X,COND=((9,LT),(5,EQ),(6,EQ),(7,EQ))         00017200
//STEPLIB   DD DSN=FISP.FIS.LOADLIB,DISP=SHR
//          DD DSN=DB2P.DCA.LOAD,DISP=SHR
//          DD DSN=DB2F.DSNEXIT,DISP=SHR
//          DD DSN=DB2F.DSNLOAD,DISP=SHR
//SYSPRINT DD  SYSOUT=*
//SYSTSPRT DD  SYSOUT=*
//SYSTSIN  DD  *
 DSN SYSTEM(DB2F)
 RUN PROGRAM(FAPUK02X) PLAN(FAPUK02X)
/*
//SYSOUT    DD SYSOUT=*                                                 00018100
//SYSLST    DD SYSOUT=*                                                 00018200
//CONTROLR  DD DSN=FISP.APDXMGV.FAPUK02.CR.D$APDAT..T$FTIME,            00018300
//             DISP=(NEW,CATLG,KEEP),                                   00018400
//             DCB=(RECFM=FBA,LRECL=133,BLKSIZE=23408),                 00018500
//             SPACE=(TRK,(2,2),RLSE),                                  00018600
//             UNIT=SYSDA                                               00018700
//SYSUDUMP  DD SYSOUT=D,                                                00018800
//             DEST=LOCAL                                               00018900
//SYSDBOUT  DD SYSOUT=*                                                 00019000
//RUNPARMS  DD DSN=FISP.FILE.CHECKS.RUNPARMS,                           00019100
//             DISP=SHR                                                 00019200
//SARX400   DD DSN=FISP.XMGV.ADDRESS.VSAM,DISP=SHR                      00019300
//XADCTXT   DD DUMMY
//FAPUK02E  DD DSN=FISP.TEMP.UK02E.XMGV,                                00019400
//             DISP=(NEW,CATLG,DELETE),                                 00019500
//             DCB=(RECFM=FB,LRECL=344,BLKSIZE=23392),                  00019600
//             SPACE=(TRK,(510,75),RLSE),                               00019700
//             UNIT=SYSALLDA,                                           00019800
//             VOL=SER=APC003                                           00019900
//SYSIN     DD *
 000001 ISISDICT
//*====================================================                 00020200
//*       SORT FAPUK02E EXTRACT FILE                                    00020300
//*====================================================                 00020400
//STEP07   EXEC PGM=SORT,COND=((9,LT),(5,EQ),(6,EQ),(7,EQ))             00020500
//SYSOUT    DD SYSOUT=*                                                 00020600
//SORTIN    DD DSN=FISP.TEMP.UK02E.XMGV,                                00020700
//             DISP=(OLD,DELETE)                                        00020800
//SORTOUT   DD DSN=FISP.FILE.UK02E.XMGV,                                00020900
//             DISP=(NEW,CATLG,DELETE),                                 00021000
//             DCB=(RECFM=FB,LRECL=344,BLKSIZE=23392),                  00021100
//             SPACE=(TRK,(510,75),RLSE),                               00021200
//             UNIT=SYSALLDA,                                           00021300
//             VOL=SER=APC003                                           00021400
//SORTWK01  DD SPACE=(TRK,(300,150)),                                   00021500
//             UNIT=SYSDA                                               00021600
//SORTWK02  DD SPACE=(TRK,(300,150)),                                   00021700
//             UNIT=SYSDA                                               00021800
//SORTWK03  DD SPACE=(TRK,(300,150)),                                   00021900
//             UNIT=SYSDA                                               00022000
//SORTWK04  DD SPACE=(TRK,(300,150)),                                   00022100
//             UNIT=SYSDA                                               00022200
//SYSIN     DD *                                                        00022300
   SORT FIELDS=(1,75,CH,A,76,1,CH,D)
/*                                                                      00022400
//*====================================================                 00022500
//*             CHECK NUMBER ASSIGNOR                                   00022600
//*====================================================                 00022700
//STEP08   EXEC PGM=FAPCK03,COND=((9,LT),(5,EQ),(6,EQ),(7,EQ))          00022800
//STEPLIB   DD DSN=FISP.FIS.LOADLIB,DISP=SHR
//          DD DSN=DB2P.DCA.LOAD,DISP=SHR
//          DD DSN=DB2F.DSNEXIT,DISP=SHR
//          DD DSN=DB2F.DSNLOAD,DISP=SHR
//SYSPRINT DD  SYSOUT=*
//SYSTSPRT DD  SYSOUT=*
//SYSTSIN  DD  *
 DSN SYSTEM(DB2F)
 RUN PROGRAM(FAPCK03) PLAN(FAPCK03)
/*
//SYSOUT    DD SYSOUT=*                                                 00023700
//SYSLST    DD SYSOUT=*                                                 00023800
//CONTROLR  DD DSN=FISP.APDXMGV.FAPCK03.CR.D$APDAT..T$FTIME,            00023900
//             DISP=(NEW,CATLG,KEEP),                                   00024000
//             DCB=(RECFM=FBA,LRECL=133,BLKSIZE=23408),                 00024100
//             SPACE=(TRK,(2,2),RLSE),                                  00024200
//             UNIT=SYSDA                                               00024300
//SYSUDUMP  DD SYSOUT=D,                                                00024400
//             DEST=LOCAL                                               00024500
//SYSDBOUT  DD SYSOUT=*                                                 00024600
//RUNPARMS  DD DSN=FISP.FILE.CHECKS.RUNPARMS,                           00024700
//             DISP=SHR                                                 00024800
//RESTART   DD DUMMY                                                    00024900
//FAPUK02E  DD DSN=FISP.FILE.UK02E.XMGV,                                00025000
//             DISP=SHR                                                 00025100
//FAPCK03O  DD DSN=&&CK03O,                                             00025200
//             DISP=(NEW,PASS),                                         00025300
//             DCB=(RECFM=FB,LRECL=408,BLKSIZE=27744),                  00025400
//             SPACE=(TRK,(15,75),RLSE),                                00025500
//             UNIT=VIO                                                 00025600
//FAPDK04O  DD DUMMY                                                    00025700
//SYSIN     DD *
 000001 ISISDICT
//*====================================================                 00026000
//*       SORT FAPCK030 FILE                                            00026100
//*====================================================                 00026200
//STEP09   EXEC PGM=SORT,COND=((9,LT),(5,EQ),(6,EQ),(7,EQ))             00026300
//SYSOUT    DD SYSOUT=*                                                 00026400
//SORTIN    DD DSN=&&CK03O,                                             00026500
//             DISP=(OLD,DELETE)                                        00026600
//SORTOUT   DD DSN=FISP.FILE.CK03O.XMGV,                                00026700
//             DISP=(NEW,CATLG,DELETE),                                 00026800
//             DCB=(RECFM=FB,LRECL=408,BLKSIZE=27744),                  00026900
//             SPACE=(TRK,(150,75),RLSE),                               00027000
//             UNIT=SYSALLDA,                                           00027100
//             VOL=SER=APC003                                           00027200
//SORTWK01  DD SPACE=(TRK,(150,150)),                                   00027300
//             UNIT=SYSDA                                               00027400
//SORTWK02  DD SPACE=(TRK,(150,150)),                                   00027500
//             UNIT=SYSDA                                               00027600
//SORTWK03  DD SPACE=(TRK,(150,150)),                                   00027700
//             UNIT=SYSDA                                               00027800
//SORTWK04  DD SPACE=(TRK,(150,150)),                                   00027900
//             UNIT=SYSDA                                               00028000
//SYSIN     DD *                                                        00028100
   SORT FIELDS=(1,76,CH,A)
/*                                                                      00028200
//*====================================================                 00028300
//*       CHECK PRINT DRIVER                                            00028400
//*====================================================                 00028500
//STEP10   EXEC PGM=FAPDK04,COND=((9,LT),(5,EQ),(6,EQ),(7,EQ))          00028600
//STEPLIB   DD DSN=FISP.FIS.LOADLIB,DISP=SHR
//          DD DSN=DB2P.DCA.LOAD,DISP=SHR
//          DD DSN=DB2F.DSNEXIT,DISP=SHR
//          DD DSN=DB2F.DSNLOAD,DISP=SHR
//SYSPRINT DD  SYSOUT=*
//SYSTSPRT DD  SYSOUT=*
//SYSTSIN  DD  *
 DSN SYSTEM(DB2F)
 RUN PROGRAM(FAPDK04) PLAN(FAPDK04)
/*
//SYSOUT    DD SYSOUT=*                                                 00029500
//SYSLST    DD SYSOUT=*                                                 00029600
//CONTROLR  DD DSN=FISP.APDXMGV.FAPDK04.CR.D$APDAT..T$FTIME,            00029700
//             DISP=(NEW,CATLG,KEEP),                                   00029800
//             DCB=(RECFM=FBA,LRECL=133,BLKSIZE=23408),                 00029900
//             SPACE=(TRK,(2,2),RLSE),                                  00030000
//             UNIT=SYSDA                                               00030100
//SYSUDUMP  DD SYSOUT=D,                                                00030200
//             DEST=LOCAL                                               00030300
//SYSDBOUT  DD SYSOUT=*                                                 00030400
//*CHECKS    DD SYSOUT=L,                                               00030500
//*             OUTPUT=*.OUTSPEC                                        00030600
//SARX400   DD DUMMY
//CHECKS    DD DSN=FISP.APPRINT.XMGV,                                   00030700
//             DISP=(NEW,CATLG,DELETE),                                 00030800
//             DCB=(RECFM=FBA,LRECL=133,BLKSIZE=23408),                 00030900
//             SPACE=(TRK,(450,450),RLSE),                              00031000
//             UNIT=SYSDA                                               00031100
//RUNPARMS  DD DSN=FISP.FILE.CHECKS.RUNPARMS,                           00031200
//             DISP=SHR                                                 00031300
//RESTART   DD DUMMY,                                                   00031400
//             DCB=BLKSIZE=80                                           00031500
//FAPCK03O  DD DSN=FISP.FILE.CK03O.XMGV,                                00031600
//             DISP=SHR                                                 00031700
//FAPDK04O  DD DSN=&&DK04O,                                             00031800
//             DISP=(NEW,PASS),                                         00031900
//             DCB=(RECFM=FB,LRECL=414,BLKSIZE=23184),                  00032000
//             SPACE=(TRK,(15,75),RLSE),                                00032100
//             UNIT=VIO                                                 00032200
//SYSIN     DD *
 000001 ISISDICT
//*====================================================                 00028300
//*       CHECK PRINT DRIVER C-SERIES                                   00028400
//*====================================================                 00028500
//STEP10B  EXEC PGM=FAPDK04C,COND=((9,LT),(5,EQ),(6,EQ),(7,EQ))         00028600
//STEPLIB   DD DSN=FISP.FIS.LOADLIB,DISP=SHR
//          DD DSN=DB2P.DCA.LOAD,DISP=SHR
//          DD DSN=DB2F.DSNEXIT,DISP=SHR
//          DD DSN=DB2F.DSNLOAD,DISP=SHR
//SYSPRINT DD  SYSOUT=*
//SYSTSPRT DD  SYSOUT=*
//SYSTSIN  DD  *
 DSN SYSTEM(DB2F)
 RUN PROGRAM(FAPDK04C) PLAN(FAPDK04C)
/*
//SYSOUT    DD SYSOUT=*                                                 00029500
//SYSLST    DD SYSOUT=*                                                 00029600
//CONTROLR  DD DSN=FISP.APDXMGV.FAPDK04.CRN.D$APDAT..T$FTIME,           00029700
//             DISP=(NEW,CATLG,KEEP),                                   00029800
//             DCB=(RECFM=FBA,LRECL=133,BLKSIZE=23408),                 00029900
//             SPACE=(TRK,(2,2),RLSE),                                  00030000
//             UNIT=SYSDA                                               00030100
//SYSUDUMP  DD SYSOUT=D,                                                00030200
//             DEST=LOCAL                                               00030300
//SYSDBOUT  DD SYSOUT=*                                                 00030400
//*CHECKS    DD SYSOUT=L,                                               00030500
//*             OUTPUT=*.OUTSPEC                                        00030600
//SARX400   DD DUMMY
//CHECKS    DD DSN=FISP.APPRINT.XMGV.NEW,                               00030700
//             DISP=(NEW,CATLG,DELETE),                                 00030800
//             DCB=(RECFM=FBA,LRECL=133,BLKSIZE=23408),                 00030900
//             SPACE=(TRK,(450,450),RLSE),                              00031000
//             UNIT=SYSDA                                               00031100
//RUNPARMS  DD DSN=FISP.FILE.CHECKS.RUNPARMS,                           00031200
//             DISP=SHR                                                 00031300
//RESTART   DD DUMMY,                                                   00031400
//             DCB=BLKSIZE=80                                           00031500
//FAPCK03O  DD DSN=FISP.FILE.CK03O.XMGV,                                00031600
//             DISP=SHR                                                 00031700
//FAPDK04O  DD DSN=&&DK04ON,                                            00031800
//             DISP=(NEW,PASS),                                         00031900
//             DCB=(RECFM=FB,LRECL=414,BLKSIZE=23184),                  00032000
//             SPACE=(TRK,(15,75),RLSE),                                00032100
//             UNIT=VIO                                                 00032200
//SYSIN     DD *
 000001 ISISDICT
//*====================================================                 00032500
//*            SORT FAPDK04O FILE                                       00032600
//*====================================================                 00032700
//STEP11   EXEC PGM=SORT,COND=((9,LT),(5,EQ),(6,EQ),(7,EQ))             00032800
//SYSOUT    DD SYSOUT=*                                                 00032900
//SORTIN    DD DSN=&&DK04O,                                             00033000
//             DISP=(OLD,PASS)                                          00033100
//SORTOUT   DD DSN=FISP.FILE.DK04O.XMGV,                                00033200
//             DISP=(NEW,CATLG,DELETE),                                 00033300
//             DCB=(RECFM=FB,LRECL=414,BLKSIZE=23184),                  00033400
//             SPACE=(TRK,(150,75),RLSE),                               00033500
//             UNIT=SYSALLDA,                                           00033600
//             VOL=SER=APC003                                           00033700
//SORTWK01  DD SPACE=(TRK,(150,150)),                                   00033800
//             UNIT=SYSDA                                               00033900
//SORTWK02  DD SPACE=(TRK,(150,150)),                                   00034000
//             UNIT=SYSDA                                               00034100
//SORTWK03  DD SPACE=(TRK,(150,150)),                                   00034200
//             UNIT=SYSDA                                               00034300
//SORTWK04  DD SPACE=(TRK,(150,150)),                                   00034400
//             UNIT=SYSDA                                               00034500
//SYSIN     DD *                                                        00034600
   SORT FIELDS=(1,43,CH,D)
/*                                                                      00034700
//*====================================================                 00032500
//* COPY FAPDK04O FILE INTO the GDG file for DW upload                  00032600
//*====================================================                 00032700
//*
//STEP11A  EXEC PGM=IEBGENER                                            00032800
//*
//SYSUT1    DD DSN=FISP.FILE.DK04O.XMGV,DISP=SHR                        00033200
//*
//SYSUT2    DD DSN=FISP.APCHKS.DK04O.DW.CHKS(+1),                       00033000
//             DISP=(NEW,CATLG),
//             DCB=(RECFM=FB,LRECL=414),
//             SPACE=(CYL,(2,2),RLSE),                                  00003300
//             UNIT=SYSALLDA
//*                                                                     00033300
//SYSPRINT  DD SYSOUT=*                                                 00032900
//SYSIN     DD DUMMY                                                    00033400
//*
//*====================================================                 00034800
//*            SORT FAPDK04O FOR CONFIRMATION DOCUMENT                  00034900
//*====================================================                 00035000
//STEP12   EXEC PGM=SORT,COND=((9,LT),(5,EQ),(6,EQ),(7,EQ))             00035100
//SYSOUT    DD SYSOUT=*                                                 00035200
//SORTIN    DD DSN=&&DK04O,                                             00035300
//             DISP=(OLD,DELETE)                                        00035400
//SORTOUT   DD DSN=FISP.FILE.DK04O.CONF.XMGV,                           00035500
//             DISP=(NEW,CATLG,DELETE),                                 00035600
//             DCB=(RECFM=FB,LRECL=414,BLKSIZE=23184),                  00035700
//             SPACE=(TRK,(150,75),RLSE),                               00035800
//             UNIT=SYSALLDA,                                           00035900
//             VOL=SER=APC003                                           00036000
//SORTWK01  DD SPACE=(TRK,(150,150)),                                   00036100
//             UNIT=SYSDA                                               00036200
//SORTWK02  DD SPACE=(TRK,(150,150)),                                   00036300
//             UNIT=SYSDA                                               00036400
//SORTWK03  DD SPACE=(TRK,(150,150)),                                   00036500
//             UNIT=SYSDA                                               00036600
//SORTWK04  DD SPACE=(TRK,(150,150)),                                   00036700
//             UNIT=SYSDA                                               00036800
//SYSIN     DD *                                                        00036900
    INCLUDE COND=(23,1,CH,EQ,C'A')
    SORT FIELDS=(1,30,CH,A,31,8,CH,D,74,3,CH,A)
/*                                                                      00037000
//*====================================================                 00037100
//*       ACH PRINT                                                     00037200
//*====================================================                 00037300
//STEP13   EXEC PGM=UAPDK04B,COND=((9,LT),(5,EQ),(6,EQ),(7,EQ))         00037400
//STEPLIB   DD DSN=FISP.FIS.LOADLIB,DISP=SHR
//SYSOUT    DD SYSOUT=*                                                 00038300
//SYSLST    DD SYSOUT=*                                                 00038400
//CONTROLR  DD DSN=FISP.APDXMGV.FAPDK04B.CR.D$APDAT..T$FTIME,           00038500
//             DISP=(NEW,CATLG,KEEP),                                   00038600
//             DCB=(RECFM=FBA,LRECL=133,BLKSIZE=23408),                 00038700
//             SPACE=(TRK,(2,2),RLSE),                                  00038800
//             UNIT=SYSDA                                               00038900
//SYSUDUMP  DD SYSOUT=D,                                                00039000
//             DEST=LOCAL                                               00039100
//SYSDBOUT  DD SYSOUT=*                                                 00039200
//RPTPARMS  DD *
*PRINT CONF NOTICE Y
*PRINT EMAIL N
//RESTART   DD DUMMY,                                                   00039300
//             DCB=BLKSIZE=80                                           00039400
//FAPDK04O  DD DSN=FISP.FILE.DK04O.CONF.XMGV,                           00039500
//             DISP=SHR                                                 00039600
//REPORT01  DD SYSOUT=(,),                                              00039700
//             OUTPUT=(*.POST1,*.POST2)                                 00039800
/*                                                                      00110000
//*====================================================                 00110000
//*       ACH EMAIL SEND                                                00025500
//*====================================================                 00110000
//STEP14   EXEC PGM=UAPDK04C,COND=((9,LT),(5,EQ),(6,EQ),(7,EQ))         00025700
//STEPLIB   DD DSN=FISP.FIS.LOADLIB,DISP=SHR
//SYSOUT    DD SYSOUT=*                                                 00026700
//SYSLST    DD SYSOUT=*                                                 00026800
//CONTROLR  DD DSN=FISP.APDXMGV.UAPDK04C.CR.D$APDAT..T$FTIME,           00650001
//             DISP=(NEW,CATLG,KEEP),                                   00670001
//             DCB=(RECFM=FBA,LRECL=133,BLKSIZE=23408),                 00680001
//             SPACE=(TRK,(2,2),RLSE),                                  00690001
//             UNIT=SYSDA                                               00700001
//SYSUDUMP  DD SYSOUT=D,                                                00026900
//             DEST=LOCAL                                               00027000
//SYSDBOUT  DD SYSOUT=*                                                 00027100
//FAPDK04O  DD DSN=FISP.FILE.DK04O.CONF.XMGV,                           00028000
//             DISP=SHR                                                 00028100
//PARMIN    DD *
*COPY TO: emnotifi@ucsd.edu
*PRINT EMAIL Y
//REPORT01  DD DSN=FISP.FILE.DK04O.EMAIL.XMGV,
//             DISP=(NEW,CATLG,KEEP),                                   00670001
//             DCB=(RECFM=FB,LRECL=81,BLKSIZE=27945),                   00680001
//             SPACE=(TRK,(2,2),RLSE),                                  00690001
//             UNIT=SYSDA                                               00700001
//REPORT02  DD DSN=FISP.FILE.DK04C.EMAIL.SENT,
//             DISP=MOD
/*
//*===================================================================  00003500
//*THIS STRIPS OFF THE FIRST CHARACTER (CARRIAGE CONTROL)               00003500
//*===================================================================  00003500
//STEP15   EXEC PGM=SYNCSORT,COND=(0,NE)                                00003600
//SYSOUT    DD SYSOUT=*                                                 00003700
//SORTIN    DD DSN=FISP.FILE.DK04O.EMAIL.XMGV,                          00003900
//             DISP=SHR                                                 00004000
//SORTOUT   DD DSN=FISP.FILE.DK04C.EMAIL.XMGV.D$APDAT,                  00004100
//             DISP=(NEW,CATLG,DELETE),                                 00004200
//             DCB=(RECFM=FBA,BLKSIZE=27920,LRECL=80),                  00004300
//             SPACE=(TRK,(2,2)),                                       00004400
//             UNIT=SYSDA                                               00004500
//SYSPRINT  DD SYSOUT=*                                                 00003800
//SORTWK01  DD UNIT=SYSDA,SPACE=(TRK,20)                                00004100
//SYSIN     DD *                                                        00004600
           SORT FIELDS=COPY
           OUTFIL OUTREC=(1:2,80)                                       00041100
/*                                                                      00004700
//*====================================================                 00039400
//*** END OF PHASE ONE OF THE CHECK RUN                                 00039500
//*** THIS SORTED FILE IS PASSED TO
//*** THE FIRST STEP IN CHECK RUN PHASE TWO                             00039600
//*====================================================                 00039700
//*============================================================         00039800
//* PRINT CONFIRMATION DOCUMENTS REPORT                                 00039900
//*============================================================         00040000
//STEP30   EXEC PGM=IEBGENER                                            00040100
//SYSPRINT  DD SYSOUT=*                                                 00040200
//SYSUDUMP  DD SYSOUT=D,                                                00040300
//             DEST=LOCAL                                               00040400
//SYSUT1    DD DSN=FISP.APDXMGV.FAPDK04B.CR.D$APDAT..T$FTIME,           00040500
//             DISP=(OLD)                                               00040600
//SYSUT2    DD SYSOUT=(,),                                              00040700
//             OUTPUT=(*.OUT1,*.OUT2)                                   00040800
//SYSIN     DD DUMMY                                                    00040900
/*
//*============================================================         00041000
//* PRINT CHECK REQUEST REPORT                                          00041100
//*============================================================         00041200
//STEP40   EXEC PGM=IEBGENER                                            00041300
//SYSPRINT  DD SYSOUT=*                                                 00041400
//SYSUDUMP  DD SYSOUT=D,                                                00041500
//             DEST=LOCAL                                               00041600
//SYSUT1    DD DSN=FISP.APDXMGV.FAPXK00.CR.D$APDAT..T$FTIME,            00041700
//             DISP=(OLD)                                               00041800
//SYSUT2    DD SYSOUT=(,),                                              00041900
//             OUTPUT=(*.OUT1,*.OUT3)                                   00042000
//SYSIN     DD DUMMY                                                    00042100
/*
//*============================================================
//* PRINT CHECK REQUEST REPORT IF STEP03 ABENDS WITH CC=16
//*============================================================
//STEP40B  EXEC PGM=IEBGENER,COND=(16,NE,STEP03)
//SYSPRINT  DD SYSOUT=*
//SYSUDUMP  DD SYSOUT=D,
//             DEST=LOCAL
//SYSUT1    DD DSN=FISP.APDXMGV.FAPXK00.CR.D$APDAT..T$FTIME,            00041700
//             DISP=(OLD)
//SYSUT2    DD SYSOUT=(,),
//             OUTPUT=(*.OUT1,*.OUT2,*.OUT3)
//SYSIN     DD DUMMY
/*
//*============================================================
//* PRINT DUPLICATE RECORDS REPORT IF STEP04A ABENDS WITH CC=16
//*============================================================
//STEP41   EXEC PGM=IEBGENER,COND=(16,NE,STEP04A)
//SYSPRINT  DD SYSOUT=*                                                 00041400
//SYSUDUMP  DD SYSOUT=D,                                                00041500
//             DEST=LOCAL                                               00041600
//SYSUT1    DD DSN=FISP.APDXMGV.UAPXK01.CR.D$BJDT..T$FTIME,             00041700
//             DISP=(OLD)                                               00041800
//SYSUT2    DD SYSOUT=(,),                                              00041900
//             OUTPUT=(*.OUT1,*.OUT2,*.OUT3)                            00042000
//SYSIN     DD DUMMY                                                    00042100
/*
//*============================================================         00042500
//* SUBMIT ACH MAIL JOB IF ACH ACTIVITY WAS GENERATED
//*============================================================         00042500
//ADDMAIL  EXEC PGM=ZEKESET,COND=(0,NE)
//SYSPRINT  DD SYSOUT=*                                                 00000500
//SYSIN     DD *                                                        00000600
  SET SCOM 'ZADD EV 222 REBUILD'                                        00006**2
/*                                                                      00000700
//*============================================================
//RENAME1  EXEC PGM=IDCAMS
//SYSPRINT  DD SYSOUT=*
//SYSIN     DD *
   ALTER      FISP.XMGV.APCHECKS.INPUT -
              NEWNAME(FISP.XMGV.APCHECKS.INPUT.DONE.D$APDAT)
/*
//*============================================================
//RENAME2  EXEC PGM=IDCAMS
//SYSPRINT  DD SYSOUT=*
//SYSIN     DD *
   ALTER      FISP.XMGV.APCHECKS.ADDRESS.INPUT -
              NEWNAME(FISP.XMGV.APCHECKS.ADDRESS.INPT.DONE.D$APDAT)
/*
//*================================================================
//* SUBMIT MEDICAL CENTER'S COPY OF CHECKREGISTER TO DEPT'S PRINTER
//*================================================================
//PRNTREG  EXEC PGM=ZEKESET
//SYSPRINT  DD SYSOUT=*
//SYSIN     DD *
  SET SCOM 'ZADD EV 327 REBUILD'
/*
//*============================================================
//* SUBMIT UPDTXMGV (EV 249)
//*============================================================
//STEP77   EXEC PGM=ZEKESET
//SYSPRINT DD   SYSOUT=*
//SYSIN  DD   *
   SET SCOM 'ZADD EV 249 REBUILD'
/*
//*                                                                     00042500
//*============================================================         00042500
//* THE FOLLOWING STEP WILL SET CC 223 IF ANY OF THE JOB STEPS          00042500
//* ABEND OR SET AN 'UNACCEPTABLE' CONDITION CODE.                      00042500
//*============================================================         00042500
//STOPZEKE EXEC STOPZEKE                                                00042500
//*                                                                     00042500
//*================ E N D  O F  J C L  APDXMGV  ========                00042800
