//APDXSTH  JOB (SYS000),'PRDCTL',MSGCLASS=F,MSGLEVEL=(1,1),             00000100
//*====================================================                 00000200
//*      RESTART=STEP03,                                                00000300
//*====================================================                 00000400
//       NOTIFY=APCPSB,CLASS=K,REGION=0M                                00000500
//*====================================================                 00000600
//*====================================================                 00000600
//*  YOU ** MUST ** SUBMIT THIS JOB THRU ZEKE !                         00000700
//*++++++++++++++++++++++++++                                           00000800
//*    ZEKE EVENT # 1922                                                00000900
//*++++++++++++++++++++++++++                                           00001000
//*====================================================                 00000600
//* STEP14 CONTAINS CASE-SENSITIVE CODE,                                00000600
//*    DO NOT CHANGE ANY LOWERCASE TO UPPERCASE                         00000600
//*====================================================                 00000600
//*OUTSPEC OUTPUT LINECT=66,FORMS=IFIS                                  00001200
/*JOBPARM LINECT=0
//OUT1 OUTPUT CLASS=G,FORMS=A002,DEST=LOCAL,GROUPID=XSTHCHKS            00001300
//OUT2 OUTPUT CLASS=4,FORMS=A002,DEST=LOCAL,GROUPID=BACKUP1             00001400
//OUT3 OUTPUT CLASS=3,FORMS=A002,DEST=LOCAL,GROUPID=BACKUP1             00001400
//POST1 OUTPUT CLASS=S,FORMS=P075,DEST=LOCAL,GROUPID=XSTHCONF           00001500
//POST2 OUTPUT CLASS=2,FORMS=P075,DEST=LOCAL,GROUPID=BACKUP2            00001600
//* (OUT2 CHANGED FROM 'G' TO '4' FOR PRINT REDUCTION PROJECT ONLY)
//* (OUT3 CHANGED FROM 'G' TO '3' FOR PRINT REDUCTION PROJECT ONLY)
//* (POST2 CHANGED FROM 'G' TO '2' FOR PRINT REDUCTION PROJECT ONLY)
//*====================================================
//* CHECK THE STATUS OF THE ORIGIN, CAN ONLY RUN THIS JOB
//* IF THE ORIGIN STATUS IS 'INACTIVE'
//*
//* STATUS OF 'STOP' OR 'GO' WILL ABEND IN STEP00A WITH
//* A RETURN CODE OF 16
//*====================================================
//STEP00   EXEC PGM=IEBGENER
//SYSPRINT DD SYSOUT=Z
//SYSUT1 DD *
      APDXSTH = ** $APDXSTH **
/*
//SYSUT2  DD DSN=FISP.CHKWRITE.STATUS,
//           DISP=SHR
//SYSIN DD DUMMY
/*
//*============================================================
//STEP00A  EXEC PGM=UAPSTCHK
//STEPLIB   DD DSN=FISP.FIS.LOADLIB,DISP=SHR
//STATUS01  DD DSN=FISP.CHKWRITE.STATUS,DISP=SHR
//SYSOUT    DD SYSOUT=*
//SYSUDUMP  DD SYSOUT=*
//*
//*====================================================                 00000600
//STEP01   EXEC PGM=FAPTK00,COND=((9,LT),(5,EQ),(6,EQ),(7,EQ))          00002000
//STEPLIB   DD DSN=FISP.FIS.LOADLIB,DISP=SHR
//          DD DSN=DB2P.DCA.LOAD,DISP=SHR
//          DD DSN=DB2F.DSNEXIT,DISP=SHR
//          DD DSN=DB2F.DSNLOAD,DISP=SHR
//SYSPRINT DD  SYSOUT=*
//SYSTSPRT DD  SYSOUT=*
//SYSTSIN  DD  *
 DSN SYSTEM(DB2F)
 RUN PROGRAM(FAPTK00) PLAN(FAPTK00)
/*
//CONTROLR  DD DSN=FISP.APDXSTH.FAPTK00.CR.D$APDAT..T$FTIME,            00002900
//             DISP=(NEW,CATLG,KEEP),                                   00003000
//             DCB=(RECFM=FBA,LRECL=133,BLKSIZE=23408),                 00003100
//             SPACE=(TRK,(2,2),RLSE),                                  00003200
//             UNIT=SYSDA                                               00003300
//SYSOUT    DD SYSOUT=*                                                 00003400
//SYSLST    DD SYSOUT=*                                                 00003500
//SYSUDUMP  DD SYSOUT=D,                                                00003600
//             DEST=LOCAL                                               00003700
//SYSDBOUT  DD SYSOUT=*                                                 00003800
//CARDFILE  DD *                                                        00003900
01 APCPRD   XSTH 01 $APY.$APD            0025                           00170012
/*                                                                      00004000
//RUNPARMS  DD DSN=FISP.FILE.CHECKS.RUNPARMS,                           00004100
//             DISP=SHR                                                 00004200
//SYSIN     DD *
 000001 ISISDICT
//*============================================================
//* FIRST CONTROL LINE BELOW IS FOR FISCAL CLOSING PURPOSES
//* **USUALLY FROM JUNE 30 - JULY 14**
//* RESULTS ARE POSTED INTO PRELIMINARY LEDGER
//* (REPLACE CONTROL CARD ABOVE WITH FIRST CONTROL CARD BELOW
//* UNTIL AFTER CLOSING OF PRELIMINARY LEDGER PERIOD FOR DISBURSEMENTS)
//* (YEAR VALUE MUST BE CHANGED!)
//* (OFFSET OF '0025' IS INTENTIONAL DUE TO TRANSLATION DIFFERENCE
//*  IN SPACING OF ZEKE VARIABLES AND HARDCODED DATE)
//*
//*01 APCPRD   XSTH 01 20140630            0025                         00170012
//*01 APCPRD   XSTH 01 $APY.$APD            0025                        00170012
//*===========================================================          00004500
//*       DELETE CATALOGED FILES                                        00004600
//*====================================================                 00004700
//STEP02   EXEC PGM=IEFBR14,COND=((9,LT),(5,EQ),(6,EQ),(7,EQ))          00004800
//FAPXK00E  DD DSN=FISP.FILE.XK00E.XSTH,                                00004900
//             DISP=(MOD,DELETE,DELETE),                                00005000
//             DCB=(RECFM=FB,LRECL=206,BLKSIZE=6180),                   00005100
//             SPACE=(TRK,(15,15),RLSE),                                00005200
//             UNIT=SYSDA                                               00005300
//FAPUK02E  DD DSN=FISP.FILE.UK02E.XSTH,                                00005400
//             DISP=(MOD,DELETE,DELETE),                                00005500
//             DCB=(RECFM=FB,LRECL=344,BLKSIZE=23392),                  00005600
//             SPACE=(TRK,(15,15),RLSE),                                00005700
//             UNIT=SYSDA                                               00005800
//FAPCK03O  DD DSN=FISP.FILE.CK03O.XSTH,                                00005900
//             DISP=(MOD,DELETE,DELETE),                                00006000
//             DCB=(RECFM=FB,LRECL=408,BLKSIZE=27744),                  00006100
//             SPACE=(TRK,(15,15),RLSE),                                00006200
//             UNIT=SYSDA                                               00006300
//FAPDK04O  DD DSN=FISP.FILE.DK04O.XSTH,                                00006400
//             DISP=(MOD,DELETE,DELETE),                                00006500
//             DCB=(RECFM=FB,LRECL=414,BLKSIZE=23184),                  00006600
//             SPACE=(TRK,(15,15),RLSE),                                00006700
//             UNIT=SYSDA                                               00006800
//DD6       DD DSN=FISP.FILE.DK04O.CONF.XSTH,                           00006900
//             DISP=(MOD,DELETE,DELETE),                                00007000
//             DCB=(RECFM=FB,LRECL=414,BLKSIZE=23184),                  00007100
//             SPACE=(TRK,(15,15),RLSE),                                00007200
//             UNIT=SYSDA                                               00007300
//DD7       DD DSN=FISP.FILE.DK04O.EMAIL.XSTH,
//             DISP=(MOD,DELETE,DELETE),                                00670001
//             DCB=(RECFM=FB,LRECL=81,BLKSIZE=27945),                   00680001
//             SPACE=(TRK,(2,2),RLSE),                                  00690001
//             UNIT=SYSDA                                               00700001
//DD8       DD DSN=FISP.FILE.DK04C.EMAIL.XSTH,                          00004100
//             DISP=(MOD,DELETE,DELETE),                                00670001
//             DCB=(RECFM=FBA,BLKSIZE=27920,LRECL=80),                  00004300
//             SPACE=(TRK,(2,2)),                                       00004400
//             UNIT=SYSDA                                               00004500
//FAPPRINT  DD DSN=FISP.APPRINT.XSTH,                                   00007400
//             DISP=(MOD,DELETE,DELETE),                                00007500
//             DCB=(RECFM=FBA,LRECL=133,BLKSIZE=23408),                 00007600
//             SPACE=(TRK,(150,150),RLSE),                              00007700
//             UNIT=SYSDA                                               00007800
//FAPPRNTN  DD DSN=FISP.APPRINT.XSTH.NEW,                               00007400
//             DISP=(MOD,DELETE,DELETE),                                00007500
//             DCB=(RECFM=FBA,LRECL=133,BLKSIZE=23408),                 00007600
//             SPACE=(TRK,(150,150),RLSE),                              00007700
//             UNIT=SYSDA                                               00007800
/*
//*====================================================                 00007900
//*       EXTRACT DRIVER                                                00008000
//*          EXTRACT RECORDS FROM R4053-R4150-R4151-R4152 AND           00008100
//*          CREATE FAPXK00E FILE                                       00008200
//*====================================================                 00008300
//STEP03   EXEC PGM=FAPXK00,COND=((9,LT),(5,EQ),(6,EQ),(7,EQ))          00008400
//STEPLIB   DD DSN=FISP.FIS.LOADLIB,DISP=SHR
//          DD DSN=DB2P.DCA.LOAD,DISP=SHR
//          DD DSN=DB2F.DSNEXIT,DISP=SHR
//          DD DSN=DB2F.DSNLOAD,DISP=SHR
//SYSPRINT DD  SYSOUT=*
//SYSTSPRT DD  SYSOUT=*
//SYSTSIN  DD  *
 DSN SYSTEM(DB2F)
 RUN PROGRAM(FAPXK00) PLAN(FAPXK00)
/*
//*CNTRL01   DD SYSOUT=(,),OUTPUT=(*.OUT1,*.OUT2)                       00009300
//CONTROLR  DD DSN=FISP.APDXSTH.FAPXK00.CR.D$APDAT..T$FTIME,            00009400
//             DISP=(NEW,CATLG,KEEP),                                   00009500
//             DCB=(RECFM=FBA,LRECL=133,BLKSIZE=23408),                 00009600
//             SPACE=(TRK,(2,2),RLSE),                                  00009700
//             UNIT=SYSDA                                               00009800
//SYSOUT    DD SYSOUT=*                                                 00009900
//SYSLST    DD SYSOUT=*                                                 00010000
//SYSUDUMP  DD SYSOUT=D,                                                00010100
//             DEST=LOCAL                                               00010200
//SYSDBOUT  DD SYSOUT=*                                                 00010300
//RUNPARMS  DD DSN=FISP.FILE.CHECKS.RUNPARMS,                           00010400
//             DISP=SHR                                                 00010500
//EXTIFILE  DD DSN=FISP.STORHSAP.CHECKS.D$BJDT,                         00010600
//             DISP=SHR                                                 00010700
//FAPXK00E  DD DSN=&&XK00E,                                             00010800
//             DISP=(NEW,PASS,DELETE),                                  00010900
//             DCB=(RECFM=FB,LRECL=206,BLKSIZE=6180),                   00011000
//             SPACE=(TRK,(15,15)),                                     00011100
//             UNIT=VIO                                                 00011200
//FAPXFRCE  DD DUMMY,DCB=BLKSIZE=206
//SYSIN     DD *
 000001 ISISDICT
//*====================================================                 00011500
//*       SORT FAPXK00E EXTRACT FILE                                    00011600
//*====================================================                 00011700
//STEP04   EXEC PGM=SORT,COND=(0,NE)                                    00011800
//SYSOUT    DD SYSOUT=*                                                 00011900
//SORTIN    DD DSN=&&XK00E,                                             00012000
//             DISP=(OLD,DELETE)                                        00012100
//SORTOUT   DD DSN=FISP.FILE.XK00E.XSTH,                                00012200
//             MGMTCLAS=AS,DISP=(NEW,CATLG,DELETE),                     00012300
//             DCB=(RECFM=FB,LRECL=206,BLKSIZE=6180),                   00012400
//             SPACE=(TRK,(15,15)),                                     00012500
//             UNIT=SYSDA                                               00012600
//SORTWK01  DD SPACE=(TRK,(150,150)),                                   00012700
//             UNIT=SYSDA                                               00012800
//SORTWK02  DD SPACE=(TRK,(150,150)),                                   00012900
//             UNIT=SYSDA                                               00013000
//SORTWK03  DD SPACE=(TRK,(150,150)),                                   00013100
//             UNIT=SYSDA                                               00013200
//SORTWK04  DD SPACE=(TRK,(150,150)),                                   00013300
//             UNIT=SYSDA                                               00013400
//SYSIN     DD *                                                        00013500
   SORT FIELDS=(1,56,CH,A)
/*                                                                      00013600
//*====================================================
//*       CHECK FAPXK00E FOR DUPLICATES
//*====================================================
//STEP04A   EXEC PGM=UAPXK01
//STEPLIB   DD DSN=FISP.FIS.LOADLIB,DISP=SHR
//SYSOUT    DD SYSOUT=*
//FAPXK00E  DD DSN=FISP.FILE.XK00E.XSTH,
//             DISP=SHR
//CONTROLR  DD DSN=FISP.APDXSTH.UAPXK01.CR.D$BJDT..T$FTIME,
//             DISP=(NEW,CATLG,KEEP),
//             DCB=(RECFM=FBA,LRECL=133,BLKSIZE=23408),
//             SPACE=(TRK,(2,2),RLSE),
//             UNIT=SYSDA
/*
//*============================================================
//* SETS ZEKE VARIABLE TO "STOP". WATCHDOG FOR "WRAPPING-UP"
//* THE CHECKWRITE PROCESS AND RUNNING BANKFILE JOB
//*============================================================
//SETVAR   EXEC PGM=ZEKESET,COND=((9,LT),(5,EQ),(6,EQ),(7,EQ))
//SYSPRINT DD SYSOUT=*
//SYSIN    DD *
  SET VAR $APDXSTH EQ 'STOP'
/*
//*====================================================                 00013700
//*       REQUEST GENERATOR DRIVER                                      00013800
//*====================================================                 00013900
//STEP05   EXEC PGM=FAPUK01,COND=((9,LT),(5,EQ),(6,EQ),(7,EQ))          00014000
//STEPLIB   DD DSN=FISP.FIS.LOADLIB,DISP=SHR
//          DD DSN=DB2P.DCA.LOAD,DISP=SHR
//          DD DSN=DB2F.DSNEXIT,DISP=SHR
//          DD DSN=DB2F.DSNLOAD,DISP=SHR
//SYSPRINT DD  SYSOUT=*
//SYSTSPRT DD  SYSOUT=*
//SYSTSIN  DD  *
 DSN SYSTEM(DB2F)
 RUN PROGRAM(FAPUK01) PLAN(FAPUK01)
/*
//CONTROLR  DD DSN=FISP.APDXSTH.FAPUK01.CR.D$APDAT..T$FTIME,            00014900
//             DISP=(NEW,CATLG,KEEP),                                   00015000
//             DCB=(RECFM=FBA,LRECL=133,BLKSIZE=23408),                 00015100
//             SPACE=(TRK,(2,2),RLSE),                                  00015200
//             UNIT=SYSDA                                               00015300
//SYSOUT    DD SYSOUT=*                                                 00015400
//SYSLST    DD SYSOUT=*                                                 00015500
//SYSUDUMP  DD SYSOUT=D,                                                00015600
//             DEST=LOCAL                                               00015700
//SYSDBOUT  DD SYSOUT=*                                                 00015800
//RUNPARMS  DD DSN=FISP.FILE.CHECKS.RUNPARMS,                           00015900
//             DISP=SHR                                                 00016000
//FAPXK00E  DD DSN=FISP.FILE.XK00E.XSTH,                                00016100
//             DISP=SHR                                                 00016200
//SYSIN     DD *
 000001 ISISDICT
//*====================================================                 00016500
//*       REQUEST SERVER                                                00016600
//*====================================================                 00016700
//STEP06   EXEC PGM=FAPUK02,COND=((9,LT),(5,EQ),(6,EQ),(7,EQ))          00016800
//STEPLIB   DD DSN=FISP.FIS.LOADLIB,DISP=SHR
//          DD DSN=DB2P.DCA.LOAD,DISP=SHR
//          DD DSN=DB2F.DSNEXIT,DISP=SHR
//          DD DSN=DB2F.DSNLOAD,DISP=SHR
//SYSPRINT DD  SYSOUT=*
//SYSTSPRT DD  SYSOUT=*
//SYSTSIN  DD  *
 DSN SYSTEM(DB2F)
 RUN PROGRAM(FAPUK02) PLAN(FAPUK02)
/*
//CONTROLR  DD DSN=FISP.APDXSTH.FAPUK02.CR.D$APDAT..T$FTIME,            00017700
//             DISP=(NEW,CATLG,KEEP),                                   00017800
//             DCB=(RECFM=FBA,LRECL=133,BLKSIZE=23408),                 00017900
//             SPACE=(TRK,(2,2),RLSE),                                  00018000
//             UNIT=SYSDA                                               00018100
//SYSOUT    DD SYSOUT=*                                                 00018200
//SYSLST    DD SYSOUT=*                                                 00018300
//SYSUDUMP  DD SYSOUT=D,                                                00018400
//             DEST=LOCAL                                               00018500
//SYSDBOUT  DD SYSOUT=*                                                 00018600
//RUNPARMS  DD DSN=FISP.FILE.CHECKS.RUNPARMS,                           00018700
//             DISP=SHR                                                 00018800
//SARX400   DD DUMMY                                                    00018900
//XADCTXT   DD DUMMY                                                    00018900
//FAPUK02E  DD DSN=&&UK02E,                                             00019000
//             DISP=(NEW,PASS),                                         00019100
//             DCB=(RECFM=FB,LRECL=344,BLKSIZE=23392),                  00019200
//             SPACE=(TRK,(15,15),RLSE),                                00019300
//             UNIT=VIO                                                 00019400
//SYSIN     DD *
 000001 ISISDICT
//*====================================================                 00019700
//*       SORT FAPUK02E EXTRACT FILE                                    00019800
//*====================================================                 00019900
//STEP07   EXEC PGM=SORT,COND=((9,LT),(5,EQ),(6,EQ),(7,EQ))             00020000
//SYSOUT    DD SYSOUT=*                                                 00020100
//SORTIN    DD DSN=&&UK02E,                                             00020200
//             DISP=(OLD,DELETE)                                        00020300
//SORTOUT   DD DSN=FISP.FILE.UK02E.XSTH,                                00020400
//             MGMTCLAS=AS,DISP=(NEW,CATLG,DELETE),                     00020500
//             DCB=(RECFM=FB,LRECL=344,BLKSIZE=23392),                  00020600
//             SPACE=(TRK,(15,15),RLSE),                                00020700
//             UNIT=SYSDA                                               00020800
//SORTWK01  DD SPACE=(TRK,(150,150)),                                   00020900
//             UNIT=SYSDA                                               00021000
//SORTWK02  DD SPACE=(TRK,(150,150)),                                   00021100
//             UNIT=SYSDA                                               00021200
//SORTWK03  DD SPACE=(TRK,(150,150)),                                   00021300
//             UNIT=SYSDA                                               00021400
//SORTWK04  DD SPACE=(TRK,(150,150)),                                   00021500
//             UNIT=SYSDA                                               00021600
//SYSIN     DD *                                                        00021700
   SORT FIELDS=(1,75,CH,A,76,1,CH,D)
/*                                                                      00021800
//*====================================================                 00021900
//*             CHECK NUMBER ASSIGNOR                                   00022000
//*====================================================                 00022100
//STEP08   EXEC PGM=FAPCK03,COND=((9,LT),(5,EQ),(6,EQ),(7,EQ))          00022200
//STEPLIB   DD DSN=FISP.FIS.LOADLIB,DISP=SHR
//          DD DSN=DB2P.DCA.LOAD,DISP=SHR
//          DD DSN=DB2F.DSNEXIT,DISP=SHR
//          DD DSN=DB2F.DSNLOAD,DISP=SHR
//SYSPRINT DD  SYSOUT=*
//SYSTSPRT DD  SYSOUT=*
//SYSTSIN  DD  *
 DSN SYSTEM(DB2F)
 RUN PROGRAM(FAPCK03) PLAN(FAPCK03)
/*
//CONTROLR  DD DSN=FISP.APDXSTH.FAPCK03.CR.D$APDAT..T$FTIME,            00023100
//             DISP=(NEW,CATLG,KEEP),                                   00023200
//             DCB=(RECFM=FBA,LRECL=133,BLKSIZE=23408),                 00023300
//             SPACE=(TRK,(2,2),RLSE),                                  00023400
//             UNIT=SYSDA                                               00023500
//SYSOUT    DD SYSOUT=*                                                 00023600
//SYSLST    DD SYSOUT=*                                                 00023700
//SYSUDUMP  DD SYSOUT=D,                                                00023800
//             DEST=LOCAL                                               00023900
//SYSDBOUT  DD SYSOUT=*                                                 00024000
//RUNPARMS  DD DSN=FISP.FILE.CHECKS.RUNPARMS,                           00024100
//             DISP=SHR                                                 00024200
//RESTART   DD DUMMY                                                    00024300
//FAPUK02E  DD DSN=FISP.FILE.UK02E.XSTH,                                00024400
//             DISP=SHR                                                 00024500
//FAPCK03O  DD DSN=&&CK03O,                                             00024600
//             DISP=(NEW,PASS),                                         00024700
//             DCB=(RECFM=FB,LRECL=408,BLKSIZE=27744),                  00024800
//             SPACE=(TRK,(15,15),RLSE),                                00024900
//             UNIT=VIO                                                 00025000
//FAPDK04O  DD DUMMY                                                    00025100
//SYSIN     DD *
 000001 ISISDICT
//*====================================================                 00025400
//*       SORT FAPCK030 FILE                                            00025500
//*====================================================                 00025600
//STEP09   EXEC PGM=SORT,COND=((9,LT),(5,EQ),(6,EQ),(7,EQ))             00025700
//SYSOUT    DD SYSOUT=*                                                 00025800
//SORTIN    DD DSN=&&CK03O,                                             00025900
//             DISP=(OLD,DELETE)                                        00026000
//SORTOUT   DD DSN=FISP.FILE.CK03O.XSTH,                                00026100
//             MGMTCLAS=AS,DISP=(NEW,CATLG,DELETE),                     00026200
//             DCB=(RECFM=FB,LRECL=408,BLKSIZE=27744),                  00026300
//             SPACE=(TRK,(15,15),RLSE),                                00026400
//             UNIT=SYSDA                                               00026500
//SORTWK01  DD SPACE=(TRK,(150,150)),                                   00026600
//             UNIT=SYSDA                                               00026700
//SORTWK02  DD SPACE=(TRK,(150,150)),                                   00026800
//             UNIT=SYSDA                                               00026900
//SORTWK03  DD SPACE=(TRK,(150,150)),                                   00027000
//             UNIT=SYSDA                                               00027100
//SORTWK04  DD SPACE=(TRK,(150,150)),                                   00027200
//             UNIT=SYSDA                                               00027300
//SYSIN     DD *                                                        00027400
   SORT FIELDS=(1,76,CH,A)
/*                                                                      00027500
//*====================================================                 00027600
//*       CHECK PRINT DRIVER                                            00027700
//*====================================================                 00027800
//STEP10   EXEC PGM=FAPDK04,COND=((9,LT),(5,EQ),(6,EQ),(7,EQ))          00027900
//STEPLIB   DD DSN=FISP.FIS.LOADLIB,DISP=SHR
//          DD DSN=DB2P.DCA.LOAD,DISP=SHR
//          DD DSN=DB2F.DSNEXIT,DISP=SHR
//          DD DSN=DB2F.DSNLOAD,DISP=SHR
//SYSPRINT DD  SYSOUT=*
//SYSTSPRT DD  SYSOUT=*
//SYSTSIN  DD  *
 DSN SYSTEM(DB2F)
 RUN PROGRAM(FAPDK04) PLAN(FAPDK04)
/*
//CONTROLR  DD DSN=FISP.APDXSTH.FAPDK04.CR.D$APDAT..T$FTIME,            00028800
//             DISP=(NEW,CATLG,KEEP),                                   00028900
//             DCB=(RECFM=FBA,LRECL=133,BLKSIZE=23408),                 00029000
//             SPACE=(TRK,(2,2),RLSE),                                  00029100
//             UNIT=SYSDA                                               00029200
//SYSOUT    DD SYSOUT=*                                                 00029300
//SYSLST    DD SYSOUT=*                                                 00029400
//SYSUDUMP  DD SYSOUT=D,                                                00029500
//             DEST=LOCAL                                               00029600
//SYSDBOUT  DD SYSOUT=*                                                 00029700
//*CHECKS    DD SYSOUT=L,                                               00029800
//*             OUTPUT=*.OUTSPEC                                        00029900
//SARX400   DD DUMMY
//CHECKS    DD DSN=FISP.APPRINT.XSTH,                                   00030000
//             DISP=(NEW,CATLG,DELETE),                                 00030100
//             DCB=(RECFM=FBA,LRECL=133,BLKSIZE=23408),                 00030200
//             SPACE=(TRK,(150,150),RLSE),                              00030300
//             UNIT=SYSDA                                               00030400
//RUNPARMS  DD DSN=FISP.FILE.CHECKS.RUNPARMS,                           00030500
//             DISP=SHR                                                 00030600
//RESTART   DD DUMMY,                                                   00030700
//             DCB=BLKSIZE=80                                           00030800
//FAPCK03O  DD DSN=FISP.FILE.CK03O.XSTH,                                00030900
//             DISP=SHR                                                 00031000
//FAPDK04O  DD DSN=&&DK04O,                                             00031100
//             DISP=(NEW,PASS),                                         00031200
//             DCB=(RECFM=FB,LRECL=414,BLKSIZE=23184),                  00031300
//             SPACE=(TRK,(15,15),RLSE),                                00031400
//             UNIT=VIO                                                 00031500
//SYSIN     DD *
 000001 ISISDICT
//*====================================================                 00027600
//*       CHECK PRINT DRIVER C-SERIES                                   00027700
//*====================================================                 00027800
//STEP10B  EXEC PGM=FAPDK04C,COND=((9,LT),(5,EQ),(6,EQ),(7,EQ))         00027900
//STEPLIB   DD DSN=FISP.FIS.LOADLIB,DISP=SHR
//          DD DSN=DB2P.DCA.LOAD,DISP=SHR
//          DD DSN=DB2F.DSNEXIT,DISP=SHR
//          DD DSN=DB2F.DSNLOAD,DISP=SHR
//SYSPRINT DD  SYSOUT=*
//SYSTSPRT DD  SYSOUT=*
//SYSTSIN  DD  *
 DSN SYSTEM(DB2F)
 RUN PROGRAM(FAPDK04C) PLAN(FAPDK04C)
/*
//CONTROLR  DD DSN=FISP.APDXSTH.FAPDK04.CRN.D$APDAT..T$FTIME,           00028800
//             DISP=(NEW,CATLG,KEEP),                                   00028900
//             DCB=(RECFM=FBA,LRECL=133,BLKSIZE=23408),                 00029000
//             SPACE=(TRK,(2,2),RLSE),                                  00029100
//             UNIT=SYSDA                                               00029200
//SYSOUT    DD SYSOUT=*                                                 00029300
//SYSLST    DD SYSOUT=*                                                 00029400
//SYSUDUMP  DD SYSOUT=D,                                                00029500
//             DEST=LOCAL                                               00029600
//SYSDBOUT  DD SYSOUT=*                                                 00029700
//*CHECKS    DD SYSOUT=L,                                               00029800
//*             OUTPUT=*.OUTSPEC                                        00029900
//SARX400   DD DUMMY
//CHECKS    DD DSN=FISP.APPRINT.XSTH.NEW,                               00030000
//             DISP=(NEW,CATLG,DELETE),                                 00030100
//             DCB=(RECFM=FBA,LRECL=133,BLKSIZE=23408),                 00030200
//             SPACE=(TRK,(150,150),RLSE),                              00030300
//             UNIT=SYSDA                                               00030400
//RUNPARMS  DD DSN=FISP.FILE.CHECKS.RUNPARMS,                           00030500
//             DISP=SHR                                                 00030600
//RESTART   DD DUMMY,                                                   00030700
//             DCB=BLKSIZE=80                                           00030800
//FAPCK03O  DD DSN=FISP.FILE.CK03O.XSTH,                                00030900
//             DISP=SHR                                                 00031000
//FAPDK04O  DD DSN=&&DK04ON,                                            00031100
//             DISP=(NEW,PASS),                                         00031200
//             DCB=(RECFM=FB,LRECL=414,BLKSIZE=23184),                  00031300
//             SPACE=(TRK,(15,15),RLSE),                                00031400
//             UNIT=VIO                                                 00031500
//SYSIN     DD *
 000001 ISISDICT
//*====================================================                 00031800
//*            SORT FAPDK04O FILE                                       00031900
//*====================================================                 00032000
//STEP11   EXEC PGM=SORT,COND=((9,LT),(5,EQ),(6,EQ),(7,EQ))             00032100
//SYSOUT    DD SYSOUT=*                                                 00032200
//SORTIN    DD DSN=&&DK04O,                                             00032300
//             DISP=(OLD,PASS)                                          00032400
//SORTOUT   DD DSN=FISP.FILE.DK04O.XSTH,                                00032500
//             MGMTCLAS=AS,DISP=(NEW,CATLG,DELETE),                     00032600
//             DCB=(RECFM=FB,LRECL=414,BLKSIZE=23184),                  00032700
//             SPACE=(TRK,(15,15),RLSE),                                00032800
//             UNIT=SYSDA                                               00032900
//SORTWK01  DD SPACE=(TRK,(150,150)),                                   00033000
//             UNIT=SYSDA                                               00033100
//SORTWK02  DD SPACE=(TRK,(150,150)),                                   00033200
//             UNIT=SYSDA                                               00033300
//SORTWK03  DD SPACE=(TRK,(150,150)),                                   00033400
//             UNIT=SYSDA                                               00033500
//SORTWK04  DD SPACE=(TRK,(150,150)),                                   00033600
//             UNIT=SYSDA                                               00033700
//SYSIN     DD *                                                        00033800
   SORT FIELDS=(1,43,CH,D)
/*                                                                      00033900
//*====================================================                 00032500
//* COPY FAPDK04O FILE INTO the GDG file for DW upload                  00032600
//*====================================================                 00032700
//*
//STEP11A  EXEC PGM=IEBGENER                                            00032800
//*
//SYSUT1    DD DSN=FISP.FILE.DK04O.XSTH,DISP=SHR                        00033200
//*
//SYSUT2    DD DSN=FISP.APCHKS.DK04O.DW.CHKS(+1),                       00033000
//             DISP=(NEW,CATLG),
//             DCB=(RECFM=FB,LRECL=414),
//             SPACE=(CYL,(2,2),RLSE),                                  00003300
//             UNIT=SYSALLDA
//*                                                                     00033300
//SYSPRINT  DD SYSOUT=*                                                 00032900
//SYSIN     DD DUMMY                                                    00033400
//*
//*====================================================                 00034000
//*            SORT FAPDK04O FOR CONFIRMATION DOCUMENT                  00034100
//*====================================================                 00034200
//STEP12   EXEC PGM=SORT,COND=((9,LT),(5,EQ),(6,EQ),(7,EQ))             00034300
//SYSOUT    DD SYSOUT=*                                                 00034400
//SORTIN    DD DSN=&&DK04O,                                             00034500
//             DISP=(OLD,DELETE)                                        00034600
//SORTOUT   DD DSN=FISP.FILE.DK04O.CONF.XSTH,                           00034700
//             DISP=(NEW,CATLG,DELETE),                                 00034800
//             DCB=(RECFM=FB,LRECL=414,BLKSIZE=23184),                  00034900
//             SPACE=(TRK,(150,75),RLSE),                               00035000
//             UNIT=SYSALLDA,                                           00035100
//             VOL=SER=APC003                                           00035200
//SORTWK01  DD SPACE=(TRK,(150,150)),                                   00035300
//             UNIT=SYSDA                                               00035400
//SORTWK02  DD SPACE=(TRK,(150,150)),                                   00035500
//             UNIT=SYSDA                                               00035600
//SORTWK03  DD SPACE=(TRK,(150,150)),                                   00035700
//             UNIT=SYSDA                                               00035800
//SORTWK04  DD SPACE=(TRK,(150,150)),                                   00035900
//             UNIT=SYSDA                                               00036000
//SYSIN     DD *                                                        00036100
    INCLUDE COND=(23,1,CH,EQ,C'A')
    SORT FIELDS=(1,30,CH,A,31,8,CH,D)
/*                                                                      00036200
//*====================================================                 00036300
//*       ACH PRINT                                                     00036400
//*====================================================                 00036500
//STEP13   EXEC PGM=UAPDK04B,COND=((9,LT),(5,EQ),(6,EQ),(7,EQ))         00036600
//STEPLIB   DD DSN=FISP.FIS.LOADLIB,DISP=SHR
//SYSOUT    DD SYSOUT=*                                                 00037500
//SYSLST    DD SYSOUT=*                                                 00037600
//CONTROLR  DD DSN=FISP.APDXSTH.FAPDK04B.CR.D$APDAT..T$FTIME,           00037700
//             DISP=(NEW,CATLG,KEEP),                                   00037800
//             DCB=(RECFM=FBA,LRECL=133,BLKSIZE=23408),                 00037900
//             SPACE=(TRK,(2,2),RLSE),                                  00038000
//             UNIT=SYSDA                                               00038100
//SYSUDUMP  DD SYSOUT=D,                                                00038200
//             DEST=LOCAL                                               00038300
//SYSDBOUT  DD SYSOUT=*                                                 00038400
//RPTPARMS  DD *
*PRINT CONF NOTICE Y
*PRINT EMAIL N
//RESTART   DD DUMMY,                                                   00038500
//             DCB=BLKSIZE=80                                           00038600
//FAPDK04O  DD DSN=FISP.FILE.DK04O.CONF.XSTH,                           00038700
//             DISP=SHR                                                 00038800
//REPORT01  DD SYSOUT=(,),                                              00038900
//             OUTPUT=(*.POST1,*.POST2)                                 00039000
/*                                                                      00110000
//*====================================================                 00110000
//*       ACH EMAIL SEND                                                00025500
//*====================================================                 00110000
//STEP14   EXEC PGM=UAPDK04C,COND=((9,LT),(5,EQ),(6,EQ),(7,EQ))         00025700
//STEPLIB   DD DSN=FISP.FIS.LOADLIB,DISP=SHR
//SYSOUT    DD SYSOUT=*                                                 00026700
//SYSLST    DD SYSOUT=*                                                 00026800
//CONTROLR  DD DSN=FISP.APDXSTH.UAPDK04C.CR.D$APDAT..T$FTIME,           00650001
//             DISP=(NEW,CATLG,KEEP),                                   00670001
//             DCB=(RECFM=FBA,LRECL=133,BLKSIZE=23408),                 00680001
//             SPACE=(TRK,(2,2),RLSE),                                  00690001
//             UNIT=SYSDA                                               00700001
//SYSUDUMP  DD SYSOUT=D,                                                00026900
//             DEST=LOCAL                                               00027000
//SYSDBOUT  DD SYSOUT=*                                                 00027100
//FAPDK04O  DD DSN=FISP.FILE.DK04O.CONF.XSTH,                           00028000
//             DISP=SHR                                                 00028100
//PARMIN    DD *
*COPY TO: emnotifi@ucsd.edu
*PRINT EMAIL Y
//REPORT01  DD DSN=FISP.FILE.DK04O.EMAIL.XSTH,
//             DISP=(NEW,CATLG,KEEP),                                   00670001
//             DCB=(RECFM=FB,LRECL=81,BLKSIZE=27945),                   00680001
//             SPACE=(TRK,(2,2),RLSE),                                  00690001
//             UNIT=SYSDA                                               00700001
//REPORT02  DD DSN=FISP.FILE.DK04C.EMAIL.SENT,
//             DISP=MOD
/*
//*===================================================================  00003500
//*THIS STRIPS OFF THE FIRST CHARACTER (CARRIAGE CONTROL)               00003500
//*===================================================================  00003500
//STEP15   EXEC PGM=SYNCSORT,COND=(0,NE)                                00003600
//SYSOUT    DD SYSOUT=*                                                 00003700
//SORTIN    DD DSN=FISP.FILE.DK04O.EMAIL.XSTH,                          00003900
//             DISP=SHR                                                 00004000
//SORTOUT   DD DSN=FISP.FILE.DK04C.EMAIL.XSTH.D$APDAT,                  00004100
//             DISP=(NEW,CATLG,DELETE),                                 00004200
//             DCB=(RECFM=FBA,BLKSIZE=27920,LRECL=80),                  00004300
//             SPACE=(TRK,(2,2)),                                       00004400
//             UNIT=SYSDA                                               00004500
//SYSPRINT  DD SYSOUT=*                                                 00003800
//SORTWK01  DD UNIT=SYSDA,SPACE=(TRK,20)                                00004100
//SYSIN     DD *                                                        00004600
           SORT FIELDS=COPY
           OUTFIL OUTREC=(1:2,80)                                       00041100
//*====================================================                 00039100
//*** END OF PHASE ONE OF THE CHECK RUN                                 00039200
//*** THIS SORTED FILE IS PASSED TO                                     00039300
//*** THE FIRST STEP IN CHECK RUN PHASE TWO                             00039400
//*====================================================                 00039500
//*============================================================         00039600
//* PRINT CONFIRMATION DOCUMENTS REPORT                                 00039700
//*============================================================         00039800
//STEP30   EXEC PGM=IEBGENER                                            00039900
//SYSPRINT  DD SYSOUT=*                                                 00040000
//SYSUDUMP  DD SYSOUT=D,                                                00040100
//             DEST=LOCAL                                               00040200
//SYSUT1    DD DSN=FISP.APDXSTH.FAPDK04B.CR.D$APDAT..T$FTIME,           00040300
//             DISP=(OLD)                                               00040400
//SYSUT2    DD SYSOUT=(,),                                              00040500
//             OUTPUT=(*.OUT1,*.OUT2)                                   00040600
//SYSIN     DD DUMMY                                                    00040700
/*
//*============================================================         00040800
//* PRINT MULTIPLE COPIES OF CONTROLR                                   00040900
//*============================================================         00041000
//STEP40   EXEC PGM=IEBGENER                                            00041100
//SYSPRINT  DD SYSOUT=*                                                 00041200
//SYSUDUMP  DD SYSOUT=D,                                                00041300
//             DEST=LOCAL                                               00041400
//SYSUT1    DD DSN=FISP.APDXSTH.FAPXK00.CR.D$APDAT..T$FTIME,            00041500
//             DISP=(OLD)                                               00041600
//SYSUT2    DD SYSOUT=(,),                                              00041700
//             OUTPUT=(*.OUT1,*.OUT3)                                   00041800
//SYSIN     DD DUMMY                                                    00041900
/*                                                                      00004700
//*============================================================
//* PRINT CHECK REQUEST REPORT IF STEP03 ABENDS WITH CC=16
//*============================================================
//STEP40B  EXEC PGM=IEBGENER,COND=(16,NE,STEP03)
//SYSPRINT  DD SYSOUT=*
//SYSUDUMP  DD SYSOUT=D,
//             DEST=LOCAL
//SYSUT1    DD DSN=FISP.APDXSTH.FAPXK00.CR.D$APDAT..T$FTIME,            00041500
//             DISP=(OLD)
//SYSUT2    DD SYSOUT=(,),
//             OUTPUT=(*.OUT1,*.OUT2,*.OUT3)
//SYSIN     DD DUMMY
/*
//*============================================================
//* PRINT DUPLICATE RECORDS REPORT IF STEP04A ABENDS WITH CC=16
//*============================================================
//STEP41   EXEC PGM=IEBGENER,COND=(16,NE,STEP04A)
//SYSPRINT  DD SYSOUT=*                                                 00041200
//SYSUDUMP  DD SYSOUT=D,                                                00041300
//             DEST=LOCAL                                               00041400
//SYSUT1    DD DSN=FISP.APDXSTH.UAPXK01.CR.D$BJDT..T$FTIME,             00041500
//             DISP=(OLD)                                               00041600
//SYSUT2    DD SYSOUT=(,),                                              00041700
//             OUTPUT=(*.OUT1,*.OUT2,*.OUT3)                            00041800
//SYSIN     DD DUMMY                                                    00041900
/*                                                                      00004700
//*============================================================         00042500
//* SUBMIT ACH MAIL JOB IF ACH ACTIVITY WAS GENERATED
//*============================================================         00042500
//ADDMAIL  EXEC PGM=ZEKESET,COND=(0,NE)
//SYSPRINT  DD SYSOUT=*                                                 00000500
//SYSIN     DD *                                                        00000600
  SET SCOM 'ZADD EV 2665 REBUILD'                                       00006**2
/*                                                                      00000700
//*============================================================         00042500
//*      RENAMER OF EXTERNAL FILE
//*============================================================
//RENAMER  EXEC PGM=IDCAMS
//SYSPRINT  DD SYSOUT=*
//SYSIN     DD *
   ALTER      FISP.STORHSAP.CHECKS.D$BJDT -
              NEWNAME(FISP.STORHSAP.CHECKS.AP$APDAT..DONE)
/*
//*============================================================
//* SUBMIT XSTH COPY OF PRELIM CHECKREGISTER TO LOCAL PRINTER
//*  (EV 3758) MUST RUN AFTER EV 1346 -AM CHECK REGISTER REPORT
//*============================================================
//PRNTREG EXEC PGM=ZEKESET
//SYSPRINT DD  SYSOUT=*
//SYSIN DD *
   SET SCOM 'ZADD EV (3758) REBUILD'
/*
//*============================================================
//* SUBMIT XSTH COPY OF CHECKREGISTER TO LOCAL PRINTER
//*   (EV 3750) MUST RUN AFTER EV 1131 -PM CHECK REGISTER REPORT
//*============================================================
//PRNTREG EXEC PGM=ZEKESET
//SYSPRINT DD  SYSOUT=*
//SYSIN DD *
   SET SCOM 'ZADD EV (3750) REBUILD'
/*
//*============================================================
//* SUBMIT UPDTXSTH (EV 3236)
//*============================================================
//STEP77   EXEC PGM=ZEKESET
//SYSPRINT DD   SYSOUT=*
//SYSIN  DD   *
   SET SCOM 'ZADD EV 3236 REBUILD'
/*
//*
//*============================================================
//* THE FOLLOWING STEP WILL SET CC 223 IF ANY OF THE JOB STEPS
//* ABEND OR SET AN 'UNACCEPTABLE' CONDITION CODE.
//*============================================================
//STOPZEKE EXEC STOPZEKE
//*
//*================ E N D  O F  J C L  APDXSTH  ========                00042600
