//FISPLDA2 JOB (SYS000),                                                00000100
//        'ACCTG',                                                      00000200
//        CLASS=K,                                                      00000300
//        MSGCLASS=F,                                                   00000400
//        MSGLEVEL=(1,1),                                               00000500
//*       RESTART=BOOGIE,
//        NOTIFY=APCDBM,                                                00000600
//        REGION=20M                                                    00000700
//*++++++++++++++++++++++++++                                           00000800
//*    ZEKE EVENT # 3234  ...ACCTG  (FISCAL CLOSING FILES ONLY)         00000900
//*++++++++++++++++++++++++++                                           00001000
// JCLLIB ORDER=APCP.PROCLIB
//*
//CNTL1    OUTPUT COPIES=1,GROUPID=BACKUP,CLASS=G,FORMS=A011            00001200
//CNTL2    OUTPUT COPIES=1,GROUPID=ACCTG,CLASS=G,FORMS=A011             00001300
//CNTL3    OUTPUT COPIES=1,GROUPID=MC0953,CLASS=Z,FORMS=A011            00001400
//PRNT021  OUTPUT COPIES=1,GROUPID=BACKUP,CLASS=G,FORMS=A011            00001500
//PRNT022  OUTPUT COPIES=1,GROUPID=ACCTG,CLASS=G,FORMS=A011             00001600
//PRNT023  OUTPUT COPIES=1,GROUPID=MC0953,CLASS=Z,FORMS=A011            00001700
//PRNT031  OUTPUT COPIES=1,GROUPID=BACKUP,CLASS=B,FORMS=A011            00001800
//PRNT032  OUTPUT COPIES=1,GROUPID=ACCTG,CLASS=G,FORMS=A011             00001900
//PRNT033  OUTPUT COPIES=1,GROUPID=MC0953,CLASS=Z,FORMS=A011            00002000
//PRNT041  OUTPUT COPIES=1,GROUPID=BACKUP,CLASS=G,FORMS=A011            00002100
//PRNT042  OUTPUT COPIES=1,GROUPID=ACCTG,CLASS=G,FORMS=A011             00002200
//PRNT043  OUTPUT COPIES=1,GROUPID=MC0953,CLASS=Z,FORMS=A011            00002300
//OUT3 OUTPUT CLASS=F,FORMS=A011,GROUPID=PRDCTL,JESDS=ALL,DEFAULT=YES   00002400
//*                                                                     00002500
//*---------------------------------------------------------------------00002600
//*                                                                     00002700
//*====================================================                 00002300
//*                     FISPLD                                          00002400
//*====================================================                 00002836
//GAD001P  EXEC GAD001P,                                                00002925
//  CNTLOUT='(,),OUTPUT=(*.PRNT021,*.PRNT022,*.PRNT023)',  USER SYOUT   00003125
//  DCMNTOUT='(,),OUTPUT=(*.PRNT031,*.PRNT032,*.PRNT033)', USER SYOUT   00003125
//  TRANSOUT='(,),OUTPUT=(*.PRNT041,*.PRNT042,*.PRNT043)', USER SYOUT   00003125
//  OUTX='(,)',                                           SYSTEM SYSOUT 00003025
//  COPIES=1,                                             # OF COPIES   00003200
//  GROUPID='FISP',                                       TEST OR PROD  00003300
//******************************************************************
//* MUST CHANGE JOBID (BELOW-L# 45) TO MATCH NUMBER OF ACCOUNTING FILE
//* MUST CHANGE JOBID (BELOW-L# 48-53) TO MATCH NAME OF ACCOUNTING FILE
//* MUST CHANGE RENAME STEP FILE NAMES (LINES 63-64)TO MATCH ACCTG FILE
//* MUST CHANGE BOOGIE STEP FILE NAMES (LINES 80-83).
//******************************************************************
//  JOBID='FISPLDA2',                                     JOB NAME
//******************************************************************
//*
//*JVOUCHER='FISP.JVDATA.D1907SF.CLOSING',               INPUT DS
// JVOUCHER='FISP.JVDATA.D1907BX.CLOSING',               INPUT DS
//*JVOUCHER='FISP.JVDATA.D1807FX.CLOSING',               INPUT DS
//*JVOUCHER='FISP.JVDATA.D1807BX.CLOSING',               INPUT DS
//  DB2REGN='DB2F'                                       DB2 DATABASE
//*
//*===============================================================
//*  RENAME STEP
//*===============================================================
//RENAMEF1 EXEC PGM=IDCAMS
//SYSPRINT  DD SYSOUT=*
//SYSIN     DD *
   ALTER      FISP.JVDATA.D1907BX.CLOSING -
              NEWNAME(FISP.JVDATA.DONE.D1907BX.CLOSING)
/*
//*
//******************************************************
//*  THIS PRODUCES THE PDFMAIL
//******************************************************
//BOOGIE      EXEC PGM=IKJEFT1B,
//            REGION=0M,
//            DYNAMNBR=50
//STEPLIB     DD   DISP=SHR,DSN=SYS2.TXT2PDF.V3222.LOAD
//            DD   DISP=SHR,DSN=SYS2.XMITIP.V49.LOAD
//SYSEXEC     DD   DISP=SHR,DSN=SYS2.TXT2PDF.V3222.EXEC
//            DD   DISP=SHR,DSN=SYS2.XMITIP.V49.EXEC
//******************************************************************
//* MUST CHANGE FISPLDA* (BELOW) TO MATCH JOBID SHOWN ABOVE
//******************************************************************
//TXT1        DD   DISP=SHR,DSN=FISP.FISPLDA2.UGAX010.CONTROLR.RPT
//TXT2        DD   DISP=SHR,DSN=FISP.FISPLDA2.UGAUA00.PRNTR02.RPT
//TXT3        DD   DISP=SHR,DSN=FISP.FISPLDA2.UGAUA00.PRNTR03.RPT
//TXT4        DD   DISP=SHR,DSN=FISP.FISPLDA2.UGAUA00.PRNTR04.RPT
//PDF1        DD   UNIT=SYSALLDA,
//            SPACE=(CYL,(1,1)),
//            DCB=(LRECL=27990,BLKSIZE=27998,RECFM=VB)
//PDF2        DD   UNIT=SYSALLDA,
//            SPACE=(CYL,(1,1)),
//            DCB=(LRECL=27990,BLKSIZE=27998,RECFM=VB)
//PDF3        DD   UNIT=SYSALLDA,
//            SPACE=(CYL,(1,1)),
//            DCB=(LRECL=27990,BLKSIZE=27998,RECFM=VB)
//PDF4        DD   UNIT=SYSALLDA,
//            SPACE=(CYL,(1,1)),
//            DCB=(LRECL=27990,BLKSIZE=27998,RECFM=VB)
//SYSPRINT    DD   SYSOUT=X
//SYSTSPRT    DD   SYSOUT=X
//SYSTSIN     DD   *
%TXT2PDF BROWSE Y                                                     +
     IN  DD:TXT1                                                      +
     OUT DD:PDF1                                                      +
     CC YES                                                           +
     COMPRESS 9                                                       +
     CONFIRM YES                                                      +
     LPI 8                                                            +
     TM .0 BM .0 LM .5 RM .0                                          +
     ORIENT LANDSCAPE                                                 +
     PAPER /BLUEBAR/
%TXT2PDF BROWSE Y                                                     +
     IN  DD:TXT2                                                      +
     OUT DD:PDF2                                                      +
     CC YES                                                           +
     COMPRESS 9                                                       +
     CONFIRM YES                                                      +
     LPI 8                                                            +
     TM .0 BM .0 LM .5 RM .0                                          +
     ORIENT LANDSCAPE                                                 +
     PAPER /BLUEBAR/
%TXT2PDF BROWSE Y                                                     +
     IN  DD:TXT3                                                      +
     OUT DD:PDF3                                                      +
     CC YES                                                           +
     COMPRESS 9                                                       +
     CONFIRM YES                                                      +
     LPI 8                                                            +
     TM .0 BM .0 LM .5 RM .0                                          +
     ORIENT LANDSCAPE                                                 +
     PAPER /BLUEBAR/
%TXT2PDF BROWSE Y                                                     +
     IN  DD:TXT4                                                      +
     OUT DD:PDF4                                                      +
     CC YES                                                           +
     COMPRESS 9                                                       +
     CONFIRM YES                                                      +
     LPI 8                                                            +
     TM .0 BM .0 LM .5 RM .0                                          +
     ORIENT LANDSCAPE                                                 +
     PAPER /BLUEBAR/

%XMITIP * +
  SUBJECT 'REPORT# - FISPLDA2.FISP.JVDATA.ACCTG    '                  +
  FROM ACT-PRODCONTROL@UCSD.EDU                                       -
  ADDRESSFILEDD ADDRLIST                                              -
  FILEDD (  PDF1      PDF2      PDF3      PDF4         )              -
  FILENAME (FILE1.PDF FILE2.PDF FILE3.PDF FILE4.PDF)                  +
  MSGT 'REPORT RUN ON: &DAY &DATE &TIME, BY JOB: &JOB                 +
       \\\                                                            +
       \THIS REPORT IS VIEWABLE WITH ACROBAT READER.                  +
       \THE LATEST VERSION CAN BE DOWNLOADED FROM:                    +
       HTTP://WWW.ADOBE.COM/PRODINDEX/ACROBAT/READSTEP.HTML#READER +  +
       \\'
/*
//ADDRLIST    DD   *
TO  IFISHELPDESK@AD.UCSD.EDU
CC  EERMINO@UCSD.EDU
CC  DMESERVE@UCSD.EDU
CC  DCHOCK@UCSD.EDU
CC  NCOWELL@UCSD.EDU
CC  VHER@UCSD.EDU
CC  BFSSYSTEMSFTP@AD.UCSD.EDU
CC  PLASU@AD.UCSD.EDU
/*
//*
//*===============================================================
//* THE FOLLOWING STEP WILL SET CC 223 IF ANY OF THE JOB STEPS
//* ABEND OR SET AN 'UNACCEPTABLE' CONDITION CODE.
//*===============================================================
//STOPZEKE EXEC STOPZEKE
//*
//*========================== END OF JCL GAD001A2 ================
