//ISRTIDX1 JOB (SYS000),'PRDCTL',MSGLEVEL=(1,1),
//       NOTIFY=APCDBM,CLASS=K,MSGCLASS=F,REGION=0M
//**********************************************************************
//* ONCALL  SOFI INDEX INSERT
//*
//* ISRTIDX1 - INSERT ACI_ACTI_EFCTV_V, ATI_ACTI_V FROM FLAT FILE
//**********************************************************************
//STEP01   EXEC PGM=IEFBR14
//DD1       DD DSN=FISP.ISRTIDX1.OUT,
//             DISP=(MOD,DELETE,DELETE),
//             UNIT=SYSDA,SPACE=(CYL,(0,0))
//DD2       DD DSN=FISP.ISRTIDX1.CNTLRPT,
//             DISP=(MOD,DELETE,DELETE),
//             UNIT=SYSDA,SPACE=(CYL,(0,0))
//*
//STEP010  EXEC PGM=ISRTIDX1
//STEPLIB   DD DSN=FISP.FIS.LOADLIB,DISP=SHR
//          DD DSN=DB2P.DCA.LOAD,DISP=SHR
//          DD DSN=DB2F.DSNEXIT,DISP=SHR
//          DD DSN=DB2F.DSNLOAD,DISP=SHR
//SYSTSIN  DD  *
 DSN SYSTEM(DB2F)
 RUN PROGRAM(ISRTIDX1) PLAN(ISRTIDX1)
/*
//INP1      DD DSN=FIST.ISRTIDX1.INPUT,DISP=SHR
//OUT1      DD DSN=FISP.ISRTIDX1.OUT,
//             DISP=(NEW,CATLG,CATLG),
//             DCB=(RECFM=FB,LRECL=172),
//             SPACE=(TRK,(15,10),RLSE),
//             UNIT=SYSDA
//CNTLRPT   DD DSN=FISP.ISRTIDX1.CNTLRPT,
//             DISP=(NEW,CATLG,CATLG),
//             DCB=(RECFM=FBA,LRECL=133),
//             SPACE=(TRK,(15,10),RLSE),
//             UNIT=SYSDA
//SYSOUT    DD SYSOUT=*
//SYSPRINT  DD SYSOUT=*
//SYSTSPRT  DD SYSOUT=*
//SYSLST    DD SYSOUT=*
//SYSUDUMP  DD SYSOUT=*
//
