//TESTMAIL JOB (SYS000),'DOUG - PRDCTL',MSGLEVEL=(1,1),
//            MSGCLASS=X,NOTIFY=APCDBM,CLASS=K,REGION=4096K
//*====================================================
//SENDMAIL  EXEC PGM=IKJEFT01,DYNAMNBR=20
//O1 OUTPUT DEST=UCSD.DMESERVE
//O2 OUTPUT DEST=UCSD.DRINKERT
//O3 OUTPUT DEST=UCSD.FWHITTEM
//SYSPROC DD DSN=SYST.T.CLIST,DISP=SHR
//SYSPRINT DD SYSOUT=*
//SYSTSPRT DD SYSOUT=*
//NOTES DD *
 THIS IS ANOTHER 'TEST' TRANSMISSION DESIGNED TO SEND 'TEXT' AND
 A CONTROL REPORT TO SELECTED CLIENTS VIA E-MAIL.
 ( THIS ONE SHOULD REFLECT ALL 132 CHARACTERS IN THE REPORT )
/*
//SYSTSIN  DD *
 %MAILRPT -
 'FISP.PUM330B.UPUD330.CONTROLR.R060893' -
 OPARM('O1 O2 O3')
/*
//*================ E N D  O F  J C L  TESTMAIL ========
