//UTGAFIX8 JOB (SYS000),'PRDCTL',
//            MSGCLASS=F,
//            MSGLEVEL=(1,1),
//            CLASS=K,
//            REGION=0M,
//            NOTIFY=APCDBM
//*
//STEP010  EXEC PGM=UTGAFIX
//STEPLIB   DD DSN=FISP.FIS.LOADLIB,DISP=SHR
//          DD DSN=DB2P.DCA.LOAD,DISP=SHR
//          DD DSN=DB2F.DSNEXIT,DISP=SHR
//          DD DSN=DB2F.DSNLOAD,DISP=SHR
//SYSTSIN  DD  *
 DSN SYSTEM(DB2F)
 RUN PROGRAM(UTGAFIX) PLAN(UTGAFIX)
/*
//GAFIXIN   DD DSN=FISP.FIX.DOCS08,DISP=SHR                             00003800
//CNTLRPT   DD SYSOUT=*
//SYSOUT    DD SYSOUT=*
//SYSPRINT  DD SYSOUT=*
//SYSTSPRT  DD SYSOUT=*
//SYSLST    DD SYSOUT=*
//SYSUDUMP  DD SYSOUT=*
//*
//*================ E N D  O F  J C L  U T G A F I X 8 ========
